^C:\USERS\USER\DOCUMENTS\VISUAL STUDIO 2015\PROJECTS\ESHOP\ESHOP\ADMIN.CPP
/c /ZI /nologo /W3 /WX- /sdl /Od /D _DEBUG /D _CONSOLE /D _UNICODE /D UNICODE /Gm /EHsc /RTC1 /MDd /GS /fp:precise /Zc:wchar_t /Zc:forScope /Zc:inline /Fo"X64\DEBUG\\" /Fd"X64\DEBUG\VC140.PDB" /Gd /TP C:\USERS\USER\DOCUMENTS\VISUAL STUDIO 2015\PROJECTS\ESHOP\ESHOP\ADMIN.CPP
^C:\USERS\USER\DOCUMENTS\VISUAL STUDIO 2015\PROJECTS\ESHOP\ESHOP\ADMINSCREEN.CPP
/c /ZI /nologo /W3 /WX- /sdl /Od /D _DEBUG /D _CONSOLE /D _UNICODE /D UNICODE /Gm /EHsc /RTC1 /MDd /GS /fp:precise /Zc:wchar_t /Zc:forScope /Zc:inline /Fo"X64\DEBUG\\" /Fd"X64\DEBUG\VC140.PDB" /Gd /TP C:\USERS\USER\DOCUMENTS\VISUAL STUDIO 2015\PROJECTS\ESHOP\ESHOP\ADMINSCREEN.CPP
^C:\USERS\USER\DOCUMENTS\VISUAL STUDIO 2015\PROJECTS\ESHOP\ESHOP\COMPANY.CPP
/c /ZI /nologo /W3 /WX- /sdl /Od /D _DEBUG /D _CONSOLE /D _UNICODE /D UNICODE /Gm /EHsc /RTC1 /MDd /GS /fp:precise /Zc:wchar_t /Zc:forScope /Zc:inline /Fo"X64\DEBUG\\" /Fd"X64\DEBUG\VC140.PDB" /Gd /TP C:\USERS\USER\DOCUMENTS\VISUAL STUDIO 2015\PROJECTS\ESHOP\ESHOP\COMPANY.CPP
^C:\USERS\USER\DOCUMENTS\VISUAL STUDIO 2015\PROJECTS\ESHOP\ESHOP\COMPIUTER.CPP
/c /ZI /nologo /W3 /WX- /sdl /Od /D _DEBUG /D _CONSOLE /D _UNICODE /D UNICODE /Gm /EHsc /RTC1 /MDd /GS /fp:precise /Zc:wchar_t /Zc:forScope /Zc:inline /Fo"X64\DEBUG\\" /Fd"X64\DEBUG\VC140.PDB" /Gd /TP C:\USERS\USER\DOCUMENTS\VISUAL STUDIO 2015\PROJECTS\ESHOP\ESHOP\COMPIUTER.CPP
^C:\USERS\USER\DOCUMENTS\VISUAL STUDIO 2015\PROJECTS\ESHOP\ESHOP\CUSTOMER.CPP
/c /ZI /nologo /W3 /WX- /sdl /Od /D _DEBUG /D _CONSOLE /D _UNICODE /D UNICODE /Gm /EHsc /RTC1 /MDd /GS /fp:precise /Zc:wchar_t /Zc:forScope /Zc:inline /Fo"X64\DEBUG\\" /Fd"X64\DEBUG\VC140.PDB" /Gd /TP C:\USERS\USER\DOCUMENTS\VISUAL STUDIO 2015\PROJECTS\ESHOP\ESHOP\CUSTOMER.CPP
^C:\USERS\USER\DOCUMENTS\VISUAL STUDIO 2015\PROJECTS\ESHOP\ESHOP\FIRSTLOGIN.CPP
/c /ZI /nologo /W3 /WX- /sdl /Od /D _DEBUG /D _CONSOLE /D _UNICODE /D UNICODE /Gm /EHsc /RTC1 /MDd /GS /fp:precise /Zc:wchar_t /Zc:forScope /Zc:inline /Fo"X64\DEBUG\\" /Fd"X64\DEBUG\VC140.PDB" /Gd /TP C:\USERS\USER\DOCUMENTS\VISUAL STUDIO 2015\PROJECTS\ESHOP\ESHOP\FIRSTLOGIN.CPP
^C:\USERS\USER\DOCUMENTS\VISUAL STUDIO 2015\PROJECTS\ESHOP\ESHOP\LOGINSCREEN.CPP
/c /ZI /nologo /W3 /WX- /sdl /Od /D _DEBUG /D _CONSOLE /D _UNICODE /D UNICODE /Gm /EHsc /RTC1 /MDd /GS /fp:precise /Zc:wchar_t /Zc:forScope /Zc:inline /Fo"X64\DEBUG\\" /Fd"X64\DEBUG\VC140.PDB" /Gd /TP C:\USERS\USER\DOCUMENTS\VISUAL STUDIO 2015\PROJECTS\ESHOP\ESHOP\LOGINSCREEN.CPP
^C:\USERS\USER\DOCUMENTS\VISUAL STUDIO 2015\PROJECTS\ESHOP\ESHOP\MAIN.CPP
/c /ZI /nologo /W3 /WX- /sdl /Od /D _DEBUG /D _CONSOLE /D _UNICODE /D UNICODE /Gm /EHsc /RTC1 /MDd /GS /fp:precise /Zc:wchar_t /Zc:forScope /Zc:inline /Fo"X64\DEBUG\\" /Fd"X64\DEBUG\VC140.PDB" /Gd /TP C:\USERS\USER\DOCUMENTS\VISUAL STUDIO 2015\PROJECTS\ESHOP\ESHOP\MAIN.CPP
^C:\USERS\USER\DOCUMENTS\VISUAL STUDIO 2015\PROJECTS\ESHOP\ESHOP\ORDER.CPP
/c /ZI /nologo /W3 /WX- /sdl /Od /D _DEBUG /D _CONSOLE /D _UNICODE /D UNICODE /Gm /EHsc /RTC1 /MDd /GS /fp:precise /Zc:wchar_t /Zc:forScope /Zc:inline /Fo"X64\DEBUG\\" /Fd"X64\DEBUG\VC140.PDB" /Gd /TP C:\USERS\USER\DOCUMENTS\VISUAL STUDIO 2015\PROJECTS\ESHOP\ESHOP\ORDER.CPP
^C:\USERS\USER\DOCUMENTS\VISUAL STUDIO 2015\PROJECTS\ESHOP\ESHOP\PHYSICAL.CPP
/c /ZI /nologo /W3 /WX- /sdl /Od /D _DEBUG /D _CONSOLE /D _UNICODE /D UNICODE /Gm /EHsc /RTC1 /MDd /GS /fp:precise /Zc:wchar_t /Zc:forScope /Zc:inline /Fo"X64\DEBUG\\" /Fd"X64\DEBUG\VC140.PDB" /Gd /TP C:\USERS\USER\DOCUMENTS\VISUAL STUDIO 2015\PROJECTS\ESHOP\ESHOP\PHYSICAL.CPP
^C:\USERS\USER\DOCUMENTS\VISUAL STUDIO 2015\PROJECTS\ESHOP\ESHOP\PRODUCT.CPP
/c /ZI /nologo /W3 /WX- /sdl /Od /D _DEBUG /D _CONSOLE /D _UNICODE /D UNICODE /Gm /EHsc /RTC1 /MDd /GS /fp:precise /Zc:wchar_t /Zc:forScope /Zc:inline /Fo"X64\DEBUG\\" /Fd"X64\DEBUG\VC140.PDB" /Gd /TP C:\USERS\USER\DOCUMENTS\VISUAL STUDIO 2015\PROJECTS\ESHOP\ESHOP\PRODUCT.CPP
^C:\USERS\USER\DOCUMENTS\VISUAL STUDIO 2015\PROJECTS\ESHOP\ESHOP\SHOPPINGCART.CPP
/c /ZI /nologo /W3 /WX- /sdl /Od /D _DEBUG /D _CONSOLE /D _UNICODE /D UNICODE /Gm /EHsc /RTC1 /MDd /GS /fp:precise /Zc:wchar_t /Zc:forScope /Zc:inline /Fo"X64\DEBUG\\" /Fd"X64\DEBUG\VC140.PDB" /Gd /TP C:\USERS\USER\DOCUMENTS\VISUAL STUDIO 2015\PROJECTS\ESHOP\ESHOP\SHOPPINGCART.CPP
^C:\USERS\USER\DOCUMENTS\VISUAL STUDIO 2015\PROJECTS\ESHOP\ESHOP\SMARTPHONE.CPP
/c /ZI /nologo /W3 /WX- /sdl /Od /D _DEBUG /D _CONSOLE /D _UNICODE /D UNICODE /Gm /EHsc /RTC1 /MDd /GS /fp:precise /Zc:wchar_t /Zc:forScope /Zc:inline /Fo"X64\DEBUG\\" /Fd"X64\DEBUG\VC140.PDB" /Gd /TP C:\USERS\USER\DOCUMENTS\VISUAL STUDIO 2015\PROJECTS\ESHOP\ESHOP\SMARTPHONE.CPP
^C:\USERS\USER\DOCUMENTS\VISUAL STUDIO 2015\PROJECTS\ESHOP\ESHOP\TELEVISION.CPP
/c /ZI /nologo /W3 /WX- /sdl /Od /D _DEBUG /D _CONSOLE /D _UNICODE /D UNICODE /Gm /EHsc /RTC1 /MDd /GS /fp:precise /Zc:wchar_t /Zc:forScope /Zc:inline /Fo"X64\DEBUG\\" /Fd"X64\DEBUG\VC140.PDB" /Gd /TP C:\USERS\USER\DOCUMENTS\VISUAL STUDIO 2015\PROJECTS\ESHOP\ESHOP\TELEVISION.CPP
^C:\USERS\USER\DOCUMENTS\VISUAL STUDIO 2015\PROJECTS\ESHOP\ESHOP\USER.CPP
/c /ZI /nologo /W3 /WX- /sdl /Od /D _DEBUG /D _CONSOLE /D _UNICODE /D UNICODE /Gm /EHsc /RTC1 /MDd /GS /fp:precise /Zc:wchar_t /Zc:forScope /Zc:inline /Fo"X64\DEBUG\\" /Fd"X64\DEBUG\VC140.PDB" /Gd /TP C:\USERS\USER\DOCUMENTS\VISUAL STUDIO 2015\PROJECTS\ESHOP\ESHOP\USER.CPP
^C:\USERS\USER\DOCUMENTS\VISUAL STUDIO 2015\PROJECTS\ESHOP\ESHOP\USERSCREEN.CPP
/c /ZI /nologo /W3 /WX- /sdl /Od /D _DEBUG /D _CONSOLE /D _UNICODE /D UNICODE /Gm /EHsc /RTC1 /MDd /GS /fp:precise /Zc:wchar_t /Zc:forScope /Zc:inline /Fo"X64\DEBUG\\" /Fd"X64\DEBUG\VC140.PDB" /Gd /TP C:\USERS\USER\DOCUMENTS\VISUAL STUDIO 2015\PROJECTS\ESHOP\ESHOP\USERSCREEN.CPP
