^C:\Users\User\documents\visual studio 2015\Projects\EshopGui\EshopGui\EshopGui.vcxproj
C:\Users\User\documents\visual studio 2015\Projects\EshopGui\EshopGui\x64\Debug\EshopGui.AdminScreen.resources
C:\Users\User\documents\visual studio 2015\Projects\EshopGui\EshopGui\x64\Debug\EshopGui.LoginScreen.resources
^C:\Users\User\documents\visual studio 2015\Projects\EshopGui\EshopGui\EshopGui.vcxproj
C:\Users\User\documents\visual studio 2015\Projects\EshopGui\EshopGui\x64\Debug\EshopGui.AdminScreen.resources
C:\Users\User\documents\visual studio 2015\Projects\EshopGui\EshopGui\x64\Debug\EshopGui.LoginScreen.resources
^C:\Users\User\documents\visual studio 2015\Projects\EshopGui\EshopGui\EshopGui.vcxproj
C:\Users\User\documents\visual studio 2015\Projects\EshopGui\EshopGui\x64\Debug\EshopGui.AdminScreen.resources
C:\Users\User\documents\visual studio 2015\Projects\EshopGui\EshopGui\x64\Debug\EshopGui.LoginScreen.resources
^C:\Users\User\documents\visual studio 2015\Projects\EshopGui\EshopGui\EshopGui.vcxproj
C:\Users\User\documents\visual studio 2015\Projects\EshopGui\EshopGui\x64\Debug\EshopGui.AdminScreen.resources
C:\Users\User\documents\visual studio 2015\Projects\EshopGui\EshopGui\x64\Debug\EshopGui.LoginScreen.resources
^C:\Users\User\documents\visual studio 2015\Projects\EshopGui\EshopGui\EshopGui.vcxproj
C:\Users\User\documents\visual studio 2015\Projects\EshopGui\EshopGui\x64\Debug\EshopGui.AdminScreen.resources
C:\Users\User\documents\visual studio 2015\Projects\EshopGui\EshopGui\x64\Debug\EshopGui.LoginScreen.resources
^C:\Users\User\documents\visual studio 2015\Projects\EshopGui\EshopGui\EshopGui.vcxproj
C:\Users\User\documents\visual studio 2015\Projects\EshopGui\EshopGui\x64\Debug\EshopGui.AdminScreen.resources
C:\Users\User\documents\visual studio 2015\Projects\EshopGui\EshopGui\x64\Debug\EshopGui.LoginScreen.resources
^C:\Users\User\documents\visual studio 2015\Projects\EshopGui\EshopGui\EshopGui.vcxproj
C:\Users\User\documents\visual studio 2015\Projects\EshopGui\EshopGui\x64\Debug\EshopGui.AdminScreen.resources
C:\Users\User\documents\visual studio 2015\Projects\EshopGui\EshopGui\x64\Debug\EshopGui.LoginScreen.resources
^C:\Users\User\documents\visual studio 2015\Projects\EshopGui\EshopGui\EshopGui.vcxproj
C:\Users\User\documents\visual studio 2015\Projects\EshopGui\EshopGui\x64\Debug\EshopGui.AdminScreen.resources
C:\Users\User\documents\visual studio 2015\Projects\EshopGui\EshopGui\x64\Debug\EshopGui.LoginScreen.resources
^C:\Users\User\Documents\Visual Studio 2015\Projects\EshopGui\EshopGui\EshopGui.vcxproj
C:\Users\User\Documents\Visual Studio 2015\Projects\EshopGui\EshopGui\x64\Debug\EshopGui.AddItem.resources
C:\Users\User\Documents\Visual Studio 2015\Projects\EshopGui\EshopGui\x64\Debug\EshopGui.AdminScreen.resources
C:\Users\User\Documents\Visual Studio 2015\Projects\EshopGui\EshopGui\x64\Debug\EshopGui.Catalog.resources
C:\Users\User\Documents\Visual Studio 2015\Projects\EshopGui\EshopGui\x64\Debug\EshopGui.CreateUser.resources
C:\Users\User\Documents\Visual Studio 2015\Projects\EshopGui\EshopGui\x64\Debug\EshopGui.LoginScreen.resources
^C:\Users\User\Documents\Visual Studio 2015\Projects\EshopGui\EshopGui\EshopGui.vcxproj
C:\Users\User\Documents\Visual Studio 2015\Projects\EshopGui\EshopGui\x64\Debug\EshopGui.AddItem.resources
C:\Users\User\Documents\Visual Studio 2015\Projects\EshopGui\EshopGui\x64\Debug\EshopGui.AdminScreen.resources
C:\Users\User\Documents\Visual Studio 2015\Projects\EshopGui\EshopGui\x64\Debug\EshopGui.Catalog.resources
C:\Users\User\Documents\Visual Studio 2015\Projects\EshopGui\EshopGui\x64\Debug\EshopGui.CreateUser.resources
C:\Users\User\Documents\Visual Studio 2015\Projects\EshopGui\EshopGui\x64\Debug\EshopGui.LoginScreen.resources
^C:\Users\User\Documents\Visual Studio 2015\Projects\EshopGui\EshopGui\EshopGui.vcxproj
C:\Users\User\Documents\Visual Studio 2015\Projects\EshopGui\EshopGui\x64\Debug\EshopGui.AddItem.resources
C:\Users\User\Documents\Visual Studio 2015\Projects\EshopGui\EshopGui\x64\Debug\EshopGui.AdminScreen.resources
C:\Users\User\Documents\Visual Studio 2015\Projects\EshopGui\EshopGui\x64\Debug\EshopGui.Catalog.resources
C:\Users\User\Documents\Visual Studio 2015\Projects\EshopGui\EshopGui\x64\Debug\EshopGui.CreateUser.resources
C:\Users\User\Documents\Visual Studio 2015\Projects\EshopGui\EshopGui\x64\Debug\EshopGui.LoginScreen.resources
^C:\Users\User\Documents\Visual Studio 2015\Projects\EshopGui\EshopGui\EshopGui.vcxproj
C:\Users\User\Documents\Visual Studio 2015\Projects\EshopGui\EshopGui\x64\Debug\EshopGui.AddItem.resources
C:\Users\User\Documents\Visual Studio 2015\Projects\EshopGui\EshopGui\x64\Debug\EshopGui.AdminScreen.resources
C:\Users\User\Documents\Visual Studio 2015\Projects\EshopGui\EshopGui\x64\Debug\EshopGui.Catalog.resources
C:\Users\User\Documents\Visual Studio 2015\Projects\EshopGui\EshopGui\x64\Debug\EshopGui.CreateUser.resources
C:\Users\User\Documents\Visual Studio 2015\Projects\EshopGui\EshopGui\x64\Debug\EshopGui.LoginScreen.resources
^C:\Users\User\Documents\Visual Studio 2015\Projects\EshopGui\EshopGui\EshopGui.vcxproj
C:\Users\User\Documents\Visual Studio 2015\Projects\EshopGui\EshopGui\x64\Debug\EshopGui.AddItem.resources
C:\Users\User\Documents\Visual Studio 2015\Projects\EshopGui\EshopGui\x64\Debug\EshopGui.AdminScreen.resources
C:\Users\User\Documents\Visual Studio 2015\Projects\EshopGui\EshopGui\x64\Debug\EshopGui.Catalog.resources
C:\Users\User\Documents\Visual Studio 2015\Projects\EshopGui\EshopGui\x64\Debug\EshopGui.CreateUser.resources
C:\Users\User\Documents\Visual Studio 2015\Projects\EshopGui\EshopGui\x64\Debug\EshopGui.LoginScreen.resources
^C:\Users\User\Documents\Visual Studio 2015\Projects\EshopGui\EshopGui\EshopGui.vcxproj
C:\Users\User\Documents\Visual Studio 2015\Projects\EshopGui\EshopGui\x64\Debug\EshopGui.AddItem.resources
C:\Users\User\Documents\Visual Studio 2015\Projects\EshopGui\EshopGui\x64\Debug\EshopGui.AdminScreen.resources
C:\Users\User\Documents\Visual Studio 2015\Projects\EshopGui\EshopGui\x64\Debug\EshopGui.Catalog.resources
C:\Users\User\Documents\Visual Studio 2015\Projects\EshopGui\EshopGui\x64\Debug\EshopGui.CreateUser.resources
C:\Users\User\Documents\Visual Studio 2015\Projects\EshopGui\EshopGui\x64\Debug\EshopGui.LoginScreen.resources
^C:\Users\User\Documents\Visual Studio 2015\Projects\EshopGui\EshopGui\EshopGui.vcxproj
C:\Users\User\Documents\Visual Studio 2015\Projects\EshopGui\EshopGui\x64\Debug\EshopGui.AddItem.resources
C:\Users\User\Documents\Visual Studio 2015\Projects\EshopGui\EshopGui\x64\Debug\EshopGui.AdminScreen.resources
C:\Users\User\Documents\Visual Studio 2015\Projects\EshopGui\EshopGui\x64\Debug\EshopGui.Catalog.resources
C:\Users\User\Documents\Visual Studio 2015\Projects\EshopGui\EshopGui\x64\Debug\EshopGui.CreateUser.resources
C:\Users\User\Documents\Visual Studio 2015\Projects\EshopGui\EshopGui\x64\Debug\EshopGui.LoginScreen.resources
^C:\Users\User\Documents\Visual Studio 2015\Projects\EshopGui\EshopGui\EshopGui.vcxproj
C:\Users\User\Documents\Visual Studio 2015\Projects\EshopGui\EshopGui\x64\Debug\EshopGui.AddItem.resources
C:\Users\User\Documents\Visual Studio 2015\Projects\EshopGui\EshopGui\x64\Debug\EshopGui.AdminScreen.resources
C:\Users\User\Documents\Visual Studio 2015\Projects\EshopGui\EshopGui\x64\Debug\EshopGui.Catalog.resources
C:\Users\User\Documents\Visual Studio 2015\Projects\EshopGui\EshopGui\x64\Debug\EshopGui.CreateUser.resources
C:\Users\User\Documents\Visual Studio 2015\Projects\EshopGui\EshopGui\x64\Debug\EshopGui.LoginScreen.resources
^C:\Users\User\Documents\Visual Studio 2015\Projects\EshopGui\EshopGui\EshopGui.vcxproj
C:\Users\User\Documents\Visual Studio 2015\Projects\EshopGui\EshopGui\x64\Debug\EshopGui.AddItem.resources
C:\Users\User\Documents\Visual Studio 2015\Projects\EshopGui\EshopGui\x64\Debug\EshopGui.AdminScreen.resources
C:\Users\User\Documents\Visual Studio 2015\Projects\EshopGui\EshopGui\x64\Debug\EshopGui.Catalog.resources
C:\Users\User\Documents\Visual Studio 2015\Projects\EshopGui\EshopGui\x64\Debug\EshopGui.CreateUser.resources
C:\Users\User\Documents\Visual Studio 2015\Projects\EshopGui\EshopGui\x64\Debug\EshopGui.LoginScreen.resources
^C:\Users\User\Documents\Visual Studio 2015\Projects\EshopGui\EshopGui\EshopGui.vcxproj
C:\Users\User\Documents\Visual Studio 2015\Projects\EshopGui\EshopGui\x64\Debug\EshopGui.AddItem.resources
C:\Users\User\Documents\Visual Studio 2015\Projects\EshopGui\EshopGui\x64\Debug\EshopGui.AdminScreen.resources
C:\Users\User\Documents\Visual Studio 2015\Projects\EshopGui\EshopGui\x64\Debug\EshopGui.Catalog.resources
C:\Users\User\Documents\Visual Studio 2015\Projects\EshopGui\EshopGui\x64\Debug\EshopGui.CreateUser.resources
C:\Users\User\Documents\Visual Studio 2015\Projects\EshopGui\EshopGui\x64\Debug\EshopGui.LoginScreen.resources
^C:\Users\User\Documents\Visual Studio 2015\Projects\EshopGui\EshopGui\EshopGui.vcxproj
C:\Users\User\Documents\Visual Studio 2015\Projects\EshopGui\EshopGui\x64\Debug\EshopGui.AddItem.resources
C:\Users\User\Documents\Visual Studio 2015\Projects\EshopGui\EshopGui\x64\Debug\EshopGui.AdminScreen.resources
C:\Users\User\Documents\Visual Studio 2015\Projects\EshopGui\EshopGui\x64\Debug\EshopGui.Catalog.resources
C:\Users\User\Documents\Visual Studio 2015\Projects\EshopGui\EshopGui\x64\Debug\EshopGui.CreateUser.resources
C:\Users\User\Documents\Visual Studio 2015\Projects\EshopGui\EshopGui\x64\Debug\EshopGui.LoginScreen.resources
^C:\Users\User\Documents\Visual Studio 2015\Projects\EshopGui\EshopGui\EshopGui.vcxproj
C:\Users\User\Documents\Visual Studio 2015\Projects\EshopGui\EshopGui\x64\Debug\EshopGui.AddItem.resources
C:\Users\User\Documents\Visual Studio 2015\Projects\EshopGui\EshopGui\x64\Debug\EshopGui.AdminScreen.resources
C:\Users\User\Documents\Visual Studio 2015\Projects\EshopGui\EshopGui\x64\Debug\EshopGui.Catalog.resources
C:\Users\User\Documents\Visual Studio 2015\Projects\EshopGui\EshopGui\x64\Debug\EshopGui.CreateUser.resources
C:\Users\User\Documents\Visual Studio 2015\Projects\EshopGui\EshopGui\x64\Debug\EshopGui.LoginScreen.resources
^C:\Users\User\Documents\Visual Studio 2015\Projects\EshopGui\EshopGui\EshopGui.vcxproj
C:\Users\User\Documents\Visual Studio 2015\Projects\EshopGui\EshopGui\x64\Debug\EshopGui.AddItem.resources
C:\Users\User\Documents\Visual Studio 2015\Projects\EshopGui\EshopGui\x64\Debug\EshopGui.AdminScreen.resources
C:\Users\User\Documents\Visual Studio 2015\Projects\EshopGui\EshopGui\x64\Debug\EshopGui.Catalog.resources
C:\Users\User\Documents\Visual Studio 2015\Projects\EshopGui\EshopGui\x64\Debug\EshopGui.CreateUser.resources
C:\Users\User\Documents\Visual Studio 2015\Projects\EshopGui\EshopGui\x64\Debug\EshopGui.LoginScreen.resources
^C:\Users\User\Documents\Visual Studio 2015\Projects\EshopGui\EshopGui\EshopGui.vcxproj
C:\Users\User\Documents\Visual Studio 2015\Projects\EshopGui\EshopGui\x64\Debug\EshopGui.AddItem.resources
C:\Users\User\Documents\Visual Studio 2015\Projects\EshopGui\EshopGui\x64\Debug\EshopGui.AdminScreen.resources
C:\Users\User\Documents\Visual Studio 2015\Projects\EshopGui\EshopGui\x64\Debug\EshopGui.Catalog.resources
C:\Users\User\Documents\Visual Studio 2015\Projects\EshopGui\EshopGui\x64\Debug\EshopGui.CreateUser.resources
C:\Users\User\Documents\Visual Studio 2015\Projects\EshopGui\EshopGui\x64\Debug\EshopGui.LoginScreen.resources
^C:\Users\User\Documents\Visual Studio 2015\Projects\EshopGui\EshopGui\EshopGui.vcxproj
C:\Users\User\Documents\Visual Studio 2015\Projects\EshopGui\EshopGui\x64\Debug\EshopGui.AddItem.resources
C:\Users\User\Documents\Visual Studio 2015\Projects\EshopGui\EshopGui\x64\Debug\EshopGui.AdminScreen.resources
C:\Users\User\Documents\Visual Studio 2015\Projects\EshopGui\EshopGui\x64\Debug\EshopGui.Catalog.resources
C:\Users\User\Documents\Visual Studio 2015\Projects\EshopGui\EshopGui\x64\Debug\EshopGui.CreateUser.resources
C:\Users\User\Documents\Visual Studio 2015\Projects\EshopGui\EshopGui\x64\Debug\EshopGui.LoginScreen.resources
^C:\Users\User\Documents\Visual Studio 2015\Projects\EshopGui\EshopGui\EshopGui.vcxproj
C:\Users\User\Documents\Visual Studio 2015\Projects\EshopGui\EshopGui\x64\Debug\EshopGui.AddItem.resources
C:\Users\User\Documents\Visual Studio 2015\Projects\EshopGui\EshopGui\x64\Debug\EshopGui.AdminScreen.resources
C:\Users\User\Documents\Visual Studio 2015\Projects\EshopGui\EshopGui\x64\Debug\EshopGui.Catalog.resources
C:\Users\User\Documents\Visual Studio 2015\Projects\EshopGui\EshopGui\x64\Debug\EshopGui.CreateUser.resources
C:\Users\User\Documents\Visual Studio 2015\Projects\EshopGui\EshopGui\x64\Debug\EshopGui.LoginScreen.resources
^C:\Users\User\Documents\Visual Studio 2015\Projects\EshopGui\EshopGui\EshopGui.vcxproj
C:\Users\User\Documents\Visual Studio 2015\Projects\EshopGui\EshopGui\x64\Debug\EshopGui.AddItem.resources
C:\Users\User\Documents\Visual Studio 2015\Projects\EshopGui\EshopGui\x64\Debug\EshopGui.AdminScreen.resources
C:\Users\User\Documents\Visual Studio 2015\Projects\EshopGui\EshopGui\x64\Debug\EshopGui.Catalog.resources
C:\Users\User\Documents\Visual Studio 2015\Projects\EshopGui\EshopGui\x64\Debug\EshopGui.CreateUser.resources
C:\Users\User\Documents\Visual Studio 2015\Projects\EshopGui\EshopGui\x64\Debug\EshopGui.LoginScreen.resources
^C:\Users\User\Documents\Visual Studio 2015\Projects\EshopGui\EshopGui\EshopGui.vcxproj
C:\Users\User\Documents\Visual Studio 2015\Projects\EshopGui\EshopGui\x64\Debug\EshopGui.AddItem.resources
C:\Users\User\Documents\Visual Studio 2015\Projects\EshopGui\EshopGui\x64\Debug\EshopGui.AdminScreen.resources
C:\Users\User\Documents\Visual Studio 2015\Projects\EshopGui\EshopGui\x64\Debug\EshopGui.Catalog.resources
C:\Users\User\Documents\Visual Studio 2015\Projects\EshopGui\EshopGui\x64\Debug\EshopGui.CreateUser.resources
C:\Users\User\Documents\Visual Studio 2015\Projects\EshopGui\EshopGui\x64\Debug\EshopGui.LoginScreen.resources
^C:\Users\User\Documents\Visual Studio 2015\Projects\EshopGui\EshopGui\EshopGui.vcxproj
C:\Users\User\Documents\Visual Studio 2015\Projects\EshopGui\EshopGui\x64\Debug\EshopGui.AddItem.resources
C:\Users\User\Documents\Visual Studio 2015\Projects\EshopGui\EshopGui\x64\Debug\EshopGui.AdminScreen.resources
C:\Users\User\Documents\Visual Studio 2015\Projects\EshopGui\EshopGui\x64\Debug\EshopGui.Catalog.resources
C:\Users\User\Documents\Visual Studio 2015\Projects\EshopGui\EshopGui\x64\Debug\EshopGui.CreateUser.resources
C:\Users\User\Documents\Visual Studio 2015\Projects\EshopGui\EshopGui\x64\Debug\EshopGui.LoginScreen.resources
^C:\Users\User\Documents\Visual Studio 2015\Projects\EshopGui\EshopGui\EshopGui.vcxproj
C:\Users\User\Documents\Visual Studio 2015\Projects\EshopGui\EshopGui\x64\Debug\EshopGui.AddItem.resources
C:\Users\User\Documents\Visual Studio 2015\Projects\EshopGui\EshopGui\x64\Debug\EshopGui.AdminScreen.resources
C:\Users\User\Documents\Visual Studio 2015\Projects\EshopGui\EshopGui\x64\Debug\EshopGui.Catalog.resources
C:\Users\User\Documents\Visual Studio 2015\Projects\EshopGui\EshopGui\x64\Debug\EshopGui.CreateUser.resources
C:\Users\User\Documents\Visual Studio 2015\Projects\EshopGui\EshopGui\x64\Debug\EshopGui.LoginScreen.resources
^C:\Users\User\Documents\Visual Studio 2015\Projects\EshopGui\EshopGui\EshopGui.vcxproj
C:\Users\User\Documents\Visual Studio 2015\Projects\EshopGui\EshopGui\x64\Debug\EshopGui.AddItem.resources
C:\Users\User\Documents\Visual Studio 2015\Projects\EshopGui\EshopGui\x64\Debug\EshopGui.AdminScreen.resources
C:\Users\User\Documents\Visual Studio 2015\Projects\EshopGui\EshopGui\x64\Debug\EshopGui.Catalog.resources
C:\Users\User\Documents\Visual Studio 2015\Projects\EshopGui\EshopGui\x64\Debug\EshopGui.CreateUser.resources
C:\Users\User\Documents\Visual Studio 2015\Projects\EshopGui\EshopGui\x64\Debug\EshopGui.LoginScreen.resources
^C:\Users\User\Documents\Visual Studio 2015\Projects\EshopGui\EshopGui\EshopGui.vcxproj
C:\Users\User\Documents\Visual Studio 2015\Projects\EshopGui\EshopGui\x64\Debug\EshopGui.AddItem.resources
C:\Users\User\Documents\Visual Studio 2015\Projects\EshopGui\EshopGui\x64\Debug\EshopGui.AdminScreen.resources
C:\Users\User\Documents\Visual Studio 2015\Projects\EshopGui\EshopGui\x64\Debug\EshopGui.Catalog.resources
C:\Users\User\Documents\Visual Studio 2015\Projects\EshopGui\EshopGui\x64\Debug\EshopGui.CreateUser.resources
C:\Users\User\Documents\Visual Studio 2015\Projects\EshopGui\EshopGui\x64\Debug\EshopGui.LoginScreen.resources
^C:\Users\User\Documents\Visual Studio 2015\Projects\EshopGui\EshopGui\EshopGui.vcxproj
C:\Users\User\Documents\Visual Studio 2015\Projects\EshopGui\EshopGui\x64\Debug\EshopGui.AddItem.resources
C:\Users\User\Documents\Visual Studio 2015\Projects\EshopGui\EshopGui\x64\Debug\EshopGui.AdminScreen.resources
C:\Users\User\Documents\Visual Studio 2015\Projects\EshopGui\EshopGui\x64\Debug\EshopGui.Catalog.resources
C:\Users\User\Documents\Visual Studio 2015\Projects\EshopGui\EshopGui\x64\Debug\EshopGui.CreateUser.resources
C:\Users\User\Documents\Visual Studio 2015\Projects\EshopGui\EshopGui\x64\Debug\EshopGui.LoginScreen.resources
^C:\Users\User\Documents\Visual Studio 2015\Projects\EshopGui\EshopGui\EshopGui.vcxproj
C:\Users\User\Documents\Visual Studio 2015\Projects\EshopGui\EshopGui\x64\Debug\EshopGui.AddItem.resources
C:\Users\User\Documents\Visual Studio 2015\Projects\EshopGui\EshopGui\x64\Debug\EshopGui.AdminScreen.resources
C:\Users\User\Documents\Visual Studio 2015\Projects\EshopGui\EshopGui\x64\Debug\EshopGui.Catalog.resources
C:\Users\User\Documents\Visual Studio 2015\Projects\EshopGui\EshopGui\x64\Debug\EshopGui.CreateUser.resources
C:\Users\User\Documents\Visual Studio 2015\Projects\EshopGui\EshopGui\x64\Debug\EshopGui.LoginScreen.resources
^C:\Users\User\Documents\Visual Studio 2015\Projects\EshopGui\EshopGui\EshopGui.vcxproj
C:\Users\User\Documents\Visual Studio 2015\Projects\EshopGui\EshopGui\x64\Debug\EshopGui.AddItem.resources
C:\Users\User\Documents\Visual Studio 2015\Projects\EshopGui\EshopGui\x64\Debug\EshopGui.AdminScreen.resources
C:\Users\User\Documents\Visual Studio 2015\Projects\EshopGui\EshopGui\x64\Debug\EshopGui.Catalog.resources
C:\Users\User\Documents\Visual Studio 2015\Projects\EshopGui\EshopGui\x64\Debug\EshopGui.CreateUser.resources
C:\Users\User\Documents\Visual Studio 2015\Projects\EshopGui\EshopGui\x64\Debug\EshopGui.LoginScreen.resources
^C:\Users\User\Documents\Visual Studio 2015\Projects\EshopGui\EshopGui\EshopGui.vcxproj
C:\Users\User\Documents\Visual Studio 2015\Projects\EshopGui\EshopGui\x64\Debug\EshopGui.AddItem.resources
C:\Users\User\Documents\Visual Studio 2015\Projects\EshopGui\EshopGui\x64\Debug\EshopGui.AdminScreen.resources
C:\Users\User\Documents\Visual Studio 2015\Projects\EshopGui\EshopGui\x64\Debug\EshopGui.Catalog.resources
C:\Users\User\Documents\Visual Studio 2015\Projects\EshopGui\EshopGui\x64\Debug\EshopGui.CreateUser.resources
C:\Users\User\Documents\Visual Studio 2015\Projects\EshopGui\EshopGui\x64\Debug\EshopGui.LoginScreen.resources
^C:\Users\User\Documents\Visual Studio 2015\Projects\EshopGui\EshopGui\EshopGui.vcxproj
C:\Users\User\Documents\Visual Studio 2015\Projects\EshopGui\EshopGui\x64\Debug\EshopGui.AddItem.resources
C:\Users\User\Documents\Visual Studio 2015\Projects\EshopGui\EshopGui\x64\Debug\EshopGui.AdminScreen.resources
C:\Users\User\Documents\Visual Studio 2015\Projects\EshopGui\EshopGui\x64\Debug\EshopGui.Catalog.resources
C:\Users\User\Documents\Visual Studio 2015\Projects\EshopGui\EshopGui\x64\Debug\EshopGui.CreateUser.resources
C:\Users\User\Documents\Visual Studio 2015\Projects\EshopGui\EshopGui\x64\Debug\EshopGui.LoginScreen.resources
^C:\Users\User\Documents\Visual Studio 2015\Projects\EshopGui\EshopGui\EshopGui.vcxproj
C:\Users\User\Documents\Visual Studio 2015\Projects\EshopGui\EshopGui\x64\Debug\EshopGui.AddItem.resources
C:\Users\User\Documents\Visual Studio 2015\Projects\EshopGui\EshopGui\x64\Debug\EshopGui.AdminScreen.resources
C:\Users\User\Documents\Visual Studio 2015\Projects\EshopGui\EshopGui\x64\Debug\EshopGui.Catalog.resources
C:\Users\User\Documents\Visual Studio 2015\Projects\EshopGui\EshopGui\x64\Debug\EshopGui.CreateUser.resources
C:\Users\User\Documents\Visual Studio 2015\Projects\EshopGui\EshopGui\x64\Debug\EshopGui.LoginScreen.resources
^C:\Users\User\Documents\Visual Studio 2015\Projects\EshopGui\EshopGui\EshopGui.vcxproj
C:\Users\User\Documents\Visual Studio 2015\Projects\EshopGui\EshopGui\x64\Debug\EshopGui.AddItem.resources
C:\Users\User\Documents\Visual Studio 2015\Projects\EshopGui\EshopGui\x64\Debug\EshopGui.AdminScreen.resources
C:\Users\User\Documents\Visual Studio 2015\Projects\EshopGui\EshopGui\x64\Debug\EshopGui.Catalog.resources
C:\Users\User\Documents\Visual Studio 2015\Projects\EshopGui\EshopGui\x64\Debug\EshopGui.CreateUser.resources
C:\Users\User\Documents\Visual Studio 2015\Projects\EshopGui\EshopGui\x64\Debug\EshopGui.LoginScreen.resources
^C:\Users\User\Documents\Visual Studio 2015\Projects\EshopGui\EshopGui\EshopGui.vcxproj
C:\Users\User\Documents\Visual Studio 2015\Projects\EshopGui\EshopGui\x64\Debug\EshopGui.AddItem.resources
C:\Users\User\Documents\Visual Studio 2015\Projects\EshopGui\EshopGui\x64\Debug\EshopGui.AdminScreen.resources
C:\Users\User\Documents\Visual Studio 2015\Projects\EshopGui\EshopGui\x64\Debug\EshopGui.Catalog.resources
C:\Users\User\Documents\Visual Studio 2015\Projects\EshopGui\EshopGui\x64\Debug\EshopGui.CreateUser.resources
C:\Users\User\Documents\Visual Studio 2015\Projects\EshopGui\EshopGui\x64\Debug\EshopGui.LoginScreen.resources
^C:\Users\User\Documents\Visual Studio 2015\Projects\EshopGui\EshopGui\EshopGui.vcxproj
C:\Users\User\Documents\Visual Studio 2015\Projects\EshopGui\EshopGui\x64\Debug\EshopGui.AddItem.resources
C:\Users\User\Documents\Visual Studio 2015\Projects\EshopGui\EshopGui\x64\Debug\EshopGui.AdminScreen.resources
C:\Users\User\Documents\Visual Studio 2015\Projects\EshopGui\EshopGui\x64\Debug\EshopGui.Catalog.resources
C:\Users\User\Documents\Visual Studio 2015\Projects\EshopGui\EshopGui\x64\Debug\EshopGui.CreateUser.resources
C:\Users\User\Documents\Visual Studio 2015\Projects\EshopGui\EshopGui\x64\Debug\EshopGui.LoginScreen.resources
^C:\Users\User\Documents\Visual Studio 2015\Projects\EshopGui\EshopGui\EshopGui.vcxproj
C:\Users\User\Documents\Visual Studio 2015\Projects\EshopGui\EshopGui\x64\Debug\EshopGui.AddItem.resources
C:\Users\User\Documents\Visual Studio 2015\Projects\EshopGui\EshopGui\x64\Debug\EshopGui.AdminScreen.resources
C:\Users\User\Documents\Visual Studio 2015\Projects\EshopGui\EshopGui\x64\Debug\EshopGui.Catalog.resources
C:\Users\User\Documents\Visual Studio 2015\Projects\EshopGui\EshopGui\x64\Debug\EshopGui.CreateUser.resources
C:\Users\User\Documents\Visual Studio 2015\Projects\EshopGui\EshopGui\x64\Debug\EshopGui.LoginScreen.resources
^C:\Users\User\Documents\Visual Studio 2015\Projects\EshopGui\EshopGui\EshopGui.vcxproj
C:\Users\User\Documents\Visual Studio 2015\Projects\EshopGui\EshopGui\x64\Debug\EshopGui.AddItem.resources
C:\Users\User\Documents\Visual Studio 2015\Projects\EshopGui\EshopGui\x64\Debug\EshopGui.AdminScreen.resources
C:\Users\User\Documents\Visual Studio 2015\Projects\EshopGui\EshopGui\x64\Debug\EshopGui.Catalog.resources
C:\Users\User\Documents\Visual Studio 2015\Projects\EshopGui\EshopGui\x64\Debug\EshopGui.CreateUser.resources
C:\Users\User\Documents\Visual Studio 2015\Projects\EshopGui\EshopGui\x64\Debug\EshopGui.LoginScreen.resources
^C:\Users\User\Documents\Visual Studio 2015\Projects\EshopGui\EshopGui\EshopGui.vcxproj
C:\Users\User\Documents\Visual Studio 2015\Projects\EshopGui\EshopGui\x64\Debug\EshopGui.AddItem.resources
C:\Users\User\Documents\Visual Studio 2015\Projects\EshopGui\EshopGui\x64\Debug\EshopGui.AdminScreen.resources
C:\Users\User\Documents\Visual Studio 2015\Projects\EshopGui\EshopGui\x64\Debug\EshopGui.Catalog.resources
C:\Users\User\Documents\Visual Studio 2015\Projects\EshopGui\EshopGui\x64\Debug\EshopGui.CreateUser.resources
C:\Users\User\Documents\Visual Studio 2015\Projects\EshopGui\EshopGui\x64\Debug\EshopGui.LoginScreen.resources
^C:\Users\User\Documents\Visual Studio 2015\Projects\EshopGui\EshopGui\EshopGui.vcxproj
C:\Users\User\Documents\Visual Studio 2015\Projects\EshopGui\EshopGui\x64\Debug\EshopGui.AddItem.resources
C:\Users\User\Documents\Visual Studio 2015\Projects\EshopGui\EshopGui\x64\Debug\EshopGui.AdminScreen.resources
C:\Users\User\Documents\Visual Studio 2015\Projects\EshopGui\EshopGui\x64\Debug\EshopGui.Catalog.resources
C:\Users\User\Documents\Visual Studio 2015\Projects\EshopGui\EshopGui\x64\Debug\EshopGui.CreateUser.resources
C:\Users\User\Documents\Visual Studio 2015\Projects\EshopGui\EshopGui\x64\Debug\EshopGui.LoginScreen.resources
^C:\Users\User\Documents\Visual Studio 2015\Projects\EshopGui\EshopGui\EshopGui.vcxproj
C:\Users\User\Documents\Visual Studio 2015\Projects\EshopGui\EshopGui\x64\Debug\EshopGui.AddItem.resources
C:\Users\User\Documents\Visual Studio 2015\Projects\EshopGui\EshopGui\x64\Debug\EshopGui.AdminScreen.resources
C:\Users\User\Documents\Visual Studio 2015\Projects\EshopGui\EshopGui\x64\Debug\EshopGui.Catalog.resources
C:\Users\User\Documents\Visual Studio 2015\Projects\EshopGui\EshopGui\x64\Debug\EshopGui.CreateUser.resources
C:\Users\User\Documents\Visual Studio 2015\Projects\EshopGui\EshopGui\x64\Debug\EshopGui.LoginScreen.resources
^C:\Users\User\documents\visual studio 2015\Projects\EshopGui\EshopGui\EshopGui.vcxproj
C:\Users\User\documents\visual studio 2015\Projects\EshopGui\EshopGui\x64\Debug\EshopGui.AddItem.resources
C:\Users\User\documents\visual studio 2015\Projects\EshopGui\EshopGui\x64\Debug\EshopGui.AdminScreen.resources
C:\Users\User\documents\visual studio 2015\Projects\EshopGui\EshopGui\x64\Debug\EshopGui.Cart.resources
C:\Users\User\documents\visual studio 2015\Projects\EshopGui\EshopGui\x64\Debug\EshopGui.Catalog.resources
C:\Users\User\documents\visual studio 2015\Projects\EshopGui\EshopGui\x64\Debug\EshopGui.CreateUser.resources
C:\Users\User\documents\visual studio 2015\Projects\EshopGui\EshopGui\x64\Debug\EshopGui.Customers.resources
C:\Users\User\documents\visual studio 2015\Projects\EshopGui\EshopGui\x64\Debug\EshopGui.FirstLogin.resources
C:\Users\User\documents\visual studio 2015\Projects\EshopGui\EshopGui\x64\Debug\EshopGui.ForgotUser.resources
C:\Users\User\documents\visual studio 2015\Projects\EshopGui\EshopGui\x64\Debug\EshopGui.Items.resources
C:\Users\User\documents\visual studio 2015\Projects\EshopGui\EshopGui\x64\Debug\EshopGui.LoginScreen.resources
C:\Users\User\documents\visual studio 2015\Projects\EshopGui\EshopGui\x64\Debug\EshopGui.OrderStatus.resources
C:\Users\User\documents\visual studio 2015\Projects\EshopGui\EshopGui\x64\Debug\EshopGui.UpdateItem.resources
C:\Users\User\documents\visual studio 2015\Projects\EshopGui\EshopGui\x64\Debug\EshopGui.UserScreen.resources
^C:\Users\User\documents\visual studio 2015\Projects\EshopGui\EshopGui\EshopGui.vcxproj
C:\Users\User\documents\visual studio 2015\Projects\EshopGui\EshopGui\x64\Debug\EshopGui.AddItem.resources
C:\Users\User\documents\visual studio 2015\Projects\EshopGui\EshopGui\x64\Debug\EshopGui.AdminScreen.resources
C:\Users\User\documents\visual studio 2015\Projects\EshopGui\EshopGui\x64\Debug\EshopGui.Cart.resources
C:\Users\User\documents\visual studio 2015\Projects\EshopGui\EshopGui\x64\Debug\EshopGui.Catalog.resources
C:\Users\User\documents\visual studio 2015\Projects\EshopGui\EshopGui\x64\Debug\EshopGui.CreateUser.resources
C:\Users\User\documents\visual studio 2015\Projects\EshopGui\EshopGui\x64\Debug\EshopGui.Customers.resources
C:\Users\User\documents\visual studio 2015\Projects\EshopGui\EshopGui\x64\Debug\EshopGui.FirstLogin.resources
C:\Users\User\documents\visual studio 2015\Projects\EshopGui\EshopGui\x64\Debug\EshopGui.ForgotUser.resources
C:\Users\User\documents\visual studio 2015\Projects\EshopGui\EshopGui\x64\Debug\EshopGui.Items.resources
C:\Users\User\documents\visual studio 2015\Projects\EshopGui\EshopGui\x64\Debug\EshopGui.LoginScreen.resources
C:\Users\User\documents\visual studio 2015\Projects\EshopGui\EshopGui\x64\Debug\EshopGui.OrderStatus.resources
C:\Users\User\documents\visual studio 2015\Projects\EshopGui\EshopGui\x64\Debug\EshopGui.UpdateItem.resources
C:\Users\User\documents\visual studio 2015\Projects\EshopGui\EshopGui\x64\Debug\EshopGui.UserScreen.resources
^C:\Users\User\documents\visual studio 2015\Projects\EshopGui\EshopGui\EshopGui.vcxproj
C:\Users\User\documents\visual studio 2015\Projects\EshopGui\EshopGui\x64\Debug\EshopGui.AddItem.resources
C:\Users\User\documents\visual studio 2015\Projects\EshopGui\EshopGui\x64\Debug\EshopGui.AdminScreen.resources
C:\Users\User\documents\visual studio 2015\Projects\EshopGui\EshopGui\x64\Debug\EshopGui.Cart.resources
C:\Users\User\documents\visual studio 2015\Projects\EshopGui\EshopGui\x64\Debug\EshopGui.Catalog.resources
C:\Users\User\documents\visual studio 2015\Projects\EshopGui\EshopGui\x64\Debug\EshopGui.CreateUser.resources
C:\Users\User\documents\visual studio 2015\Projects\EshopGui\EshopGui\x64\Debug\EshopGui.Customers.resources
C:\Users\User\documents\visual studio 2015\Projects\EshopGui\EshopGui\x64\Debug\EshopGui.FirstLogin.resources
C:\Users\User\documents\visual studio 2015\Projects\EshopGui\EshopGui\x64\Debug\EshopGui.ForgotUser.resources
C:\Users\User\documents\visual studio 2015\Projects\EshopGui\EshopGui\x64\Debug\EshopGui.Items.resources
C:\Users\User\documents\visual studio 2015\Projects\EshopGui\EshopGui\x64\Debug\EshopGui.LoginScreen.resources
C:\Users\User\documents\visual studio 2015\Projects\EshopGui\EshopGui\x64\Debug\EshopGui.OrderStatus.resources
C:\Users\User\documents\visual studio 2015\Projects\EshopGui\EshopGui\x64\Debug\EshopGui.UpdateItem.resources
C:\Users\User\documents\visual studio 2015\Projects\EshopGui\EshopGui\x64\Debug\EshopGui.UserScreen.resources
^C:\Users\User\documents\visual studio 2015\Projects\EshopGui\EshopGui\EshopGui.vcxproj
C:\Users\User\documents\visual studio 2015\Projects\EshopGui\EshopGui\x64\Debug\EshopGui.AddItem.resources
C:\Users\User\documents\visual studio 2015\Projects\EshopGui\EshopGui\x64\Debug\EshopGui.AdminScreen.resources
C:\Users\User\documents\visual studio 2015\Projects\EshopGui\EshopGui\x64\Debug\EshopGui.Cart.resources
C:\Users\User\documents\visual studio 2015\Projects\EshopGui\EshopGui\x64\Debug\EshopGui.Catalog.resources
C:\Users\User\documents\visual studio 2015\Projects\EshopGui\EshopGui\x64\Debug\EshopGui.CreateUser.resources
C:\Users\User\documents\visual studio 2015\Projects\EshopGui\EshopGui\x64\Debug\EshopGui.Customers.resources
C:\Users\User\documents\visual studio 2015\Projects\EshopGui\EshopGui\x64\Debug\EshopGui.FirstLogin.resources
C:\Users\User\documents\visual studio 2015\Projects\EshopGui\EshopGui\x64\Debug\EshopGui.ForgotUser.resources
C:\Users\User\documents\visual studio 2015\Projects\EshopGui\EshopGui\x64\Debug\EshopGui.Items.resources
C:\Users\User\documents\visual studio 2015\Projects\EshopGui\EshopGui\x64\Debug\EshopGui.LoginScreen.resources
C:\Users\User\documents\visual studio 2015\Projects\EshopGui\EshopGui\x64\Debug\EshopGui.OrderStatus.resources
C:\Users\User\documents\visual studio 2015\Projects\EshopGui\EshopGui\x64\Debug\EshopGui.UpdateItem.resources
C:\Users\User\documents\visual studio 2015\Projects\EshopGui\EshopGui\x64\Debug\EshopGui.UserScreen.resources
^C:\Users\User\documents\visual studio 2015\Projects\EshopGui\EshopGui\EshopGui.vcxproj
C:\Users\User\documents\visual studio 2015\Projects\EshopGui\EshopGui\x64\Debug\EshopGui.AddItem.resources
C:\Users\User\documents\visual studio 2015\Projects\EshopGui\EshopGui\x64\Debug\EshopGui.AdminScreen.resources
C:\Users\User\documents\visual studio 2015\Projects\EshopGui\EshopGui\x64\Debug\EshopGui.Cart.resources
C:\Users\User\documents\visual studio 2015\Projects\EshopGui\EshopGui\x64\Debug\EshopGui.Catalog.resources
C:\Users\User\documents\visual studio 2015\Projects\EshopGui\EshopGui\x64\Debug\EshopGui.CreateUser.resources
C:\Users\User\documents\visual studio 2015\Projects\EshopGui\EshopGui\x64\Debug\EshopGui.Customers.resources
C:\Users\User\documents\visual studio 2015\Projects\EshopGui\EshopGui\x64\Debug\EshopGui.FirstLogin.resources
C:\Users\User\documents\visual studio 2015\Projects\EshopGui\EshopGui\x64\Debug\EshopGui.ForgotUser.resources
C:\Users\User\documents\visual studio 2015\Projects\EshopGui\EshopGui\x64\Debug\EshopGui.Items.resources
C:\Users\User\documents\visual studio 2015\Projects\EshopGui\EshopGui\x64\Debug\EshopGui.LoginScreen.resources
C:\Users\User\documents\visual studio 2015\Projects\EshopGui\EshopGui\x64\Debug\EshopGui.OrderStatus.resources
C:\Users\User\documents\visual studio 2015\Projects\EshopGui\EshopGui\x64\Debug\EshopGui.OrderUser.resources
C:\Users\User\documents\visual studio 2015\Projects\EshopGui\EshopGui\x64\Debug\EshopGui.UpdateItem.resources
C:\Users\User\documents\visual studio 2015\Projects\EshopGui\EshopGui\x64\Debug\EshopGui.UserScreen.resources
^C:\Users\User\documents\visual studio 2015\Projects\EshopGui\EshopGui\EshopGui.vcxproj
C:\Users\User\documents\visual studio 2015\Projects\EshopGui\EshopGui\x64\Debug\EshopGui.AddItem.resources
C:\Users\User\documents\visual studio 2015\Projects\EshopGui\EshopGui\x64\Debug\EshopGui.AdminScreen.resources
C:\Users\User\documents\visual studio 2015\Projects\EshopGui\EshopGui\x64\Debug\EshopGui.Cart.resources
C:\Users\User\documents\visual studio 2015\Projects\EshopGui\EshopGui\x64\Debug\EshopGui.Catalog.resources
C:\Users\User\documents\visual studio 2015\Projects\EshopGui\EshopGui\x64\Debug\EshopGui.CreateUser.resources
C:\Users\User\documents\visual studio 2015\Projects\EshopGui\EshopGui\x64\Debug\EshopGui.Customers.resources
C:\Users\User\documents\visual studio 2015\Projects\EshopGui\EshopGui\x64\Debug\EshopGui.FirstLogin.resources
C:\Users\User\documents\visual studio 2015\Projects\EshopGui\EshopGui\x64\Debug\EshopGui.ForgotUser.resources
C:\Users\User\documents\visual studio 2015\Projects\EshopGui\EshopGui\x64\Debug\EshopGui.Items.resources
C:\Users\User\documents\visual studio 2015\Projects\EshopGui\EshopGui\x64\Debug\EshopGui.LoginScreen.resources
C:\Users\User\documents\visual studio 2015\Projects\EshopGui\EshopGui\x64\Debug\EshopGui.OrderStatus.resources
C:\Users\User\documents\visual studio 2015\Projects\EshopGui\EshopGui\x64\Debug\EshopGui.OrderUser.resources
C:\Users\User\documents\visual studio 2015\Projects\EshopGui\EshopGui\x64\Debug\EshopGui.UpdateItem.resources
C:\Users\User\documents\visual studio 2015\Projects\EshopGui\EshopGui\x64\Debug\EshopGui.UserScreen.resources
^C:\Users\User\documents\visual studio 2015\Projects\EshopGui\EshopGui\EshopGui.vcxproj
C:\Users\User\documents\visual studio 2015\Projects\EshopGui\EshopGui\x64\Debug\EshopGui.AddItem.resources
C:\Users\User\documents\visual studio 2015\Projects\EshopGui\EshopGui\x64\Debug\EshopGui.AdminScreen.resources
C:\Users\User\documents\visual studio 2015\Projects\EshopGui\EshopGui\x64\Debug\EshopGui.Cart.resources
C:\Users\User\documents\visual studio 2015\Projects\EshopGui\EshopGui\x64\Debug\EshopGui.Catalog.resources
C:\Users\User\documents\visual studio 2015\Projects\EshopGui\EshopGui\x64\Debug\EshopGui.CreateUser.resources
C:\Users\User\documents\visual studio 2015\Projects\EshopGui\EshopGui\x64\Debug\EshopGui.Customers.resources
C:\Users\User\documents\visual studio 2015\Projects\EshopGui\EshopGui\x64\Debug\EshopGui.FirstLogin.resources
C:\Users\User\documents\visual studio 2015\Projects\EshopGui\EshopGui\x64\Debug\EshopGui.ForgotUser.resources
C:\Users\User\documents\visual studio 2015\Projects\EshopGui\EshopGui\x64\Debug\EshopGui.Items.resources
C:\Users\User\documents\visual studio 2015\Projects\EshopGui\EshopGui\x64\Debug\EshopGui.LoginScreen.resources
C:\Users\User\documents\visual studio 2015\Projects\EshopGui\EshopGui\x64\Debug\EshopGui.OrderStatus.resources
C:\Users\User\documents\visual studio 2015\Projects\EshopGui\EshopGui\x64\Debug\EshopGui.OrderUser.resources
C:\Users\User\documents\visual studio 2015\Projects\EshopGui\EshopGui\x64\Debug\EshopGui.UpdateItem.resources
C:\Users\User\documents\visual studio 2015\Projects\EshopGui\EshopGui\x64\Debug\EshopGui.UserScreen.resources
^C:\Users\User\documents\visual studio 2015\Projects\EshopGui\EshopGui\EshopGui.vcxproj
C:\Users\User\documents\visual studio 2015\Projects\EshopGui\EshopGui\x64\Debug\EshopGui.AddItem.resources
C:\Users\User\documents\visual studio 2015\Projects\EshopGui\EshopGui\x64\Debug\EshopGui.AdminScreen.resources
C:\Users\User\documents\visual studio 2015\Projects\EshopGui\EshopGui\x64\Debug\EshopGui.Cart.resources
C:\Users\User\documents\visual studio 2015\Projects\EshopGui\EshopGui\x64\Debug\EshopGui.Catalog.resources
C:\Users\User\documents\visual studio 2015\Projects\EshopGui\EshopGui\x64\Debug\EshopGui.CreateUser.resources
C:\Users\User\documents\visual studio 2015\Projects\EshopGui\EshopGui\x64\Debug\EshopGui.Customers.resources
C:\Users\User\documents\visual studio 2015\Projects\EshopGui\EshopGui\x64\Debug\EshopGui.FirstLogin.resources
C:\Users\User\documents\visual studio 2015\Projects\EshopGui\EshopGui\x64\Debug\EshopGui.ForgotUser.resources
C:\Users\User\documents\visual studio 2015\Projects\EshopGui\EshopGui\x64\Debug\EshopGui.Items.resources
C:\Users\User\documents\visual studio 2015\Projects\EshopGui\EshopGui\x64\Debug\EshopGui.LoginScreen.resources
C:\Users\User\documents\visual studio 2015\Projects\EshopGui\EshopGui\x64\Debug\EshopGui.OrderStatus.resources
C:\Users\User\documents\visual studio 2015\Projects\EshopGui\EshopGui\x64\Debug\EshopGui.OrderUser.resources
C:\Users\User\documents\visual studio 2015\Projects\EshopGui\EshopGui\x64\Debug\EshopGui.UpdateItem.resources
C:\Users\User\documents\visual studio 2015\Projects\EshopGui\EshopGui\x64\Debug\EshopGui.UserScreen.resources
^C:\Users\User\documents\visual studio 2015\Projects\EshopGui\EshopGui\EshopGui.vcxproj
C:\Users\User\documents\visual studio 2015\Projects\EshopGui\EshopGui\x64\Debug\EshopGui.AddItem.resources
C:\Users\User\documents\visual studio 2015\Projects\EshopGui\EshopGui\x64\Debug\EshopGui.AdminScreen.resources
C:\Users\User\documents\visual studio 2015\Projects\EshopGui\EshopGui\x64\Debug\EshopGui.Cart.resources
C:\Users\User\documents\visual studio 2015\Projects\EshopGui\EshopGui\x64\Debug\EshopGui.Catalog.resources
C:\Users\User\documents\visual studio 2015\Projects\EshopGui\EshopGui\x64\Debug\EshopGui.CreateUser.resources
C:\Users\User\documents\visual studio 2015\Projects\EshopGui\EshopGui\x64\Debug\EshopGui.Customers.resources
C:\Users\User\documents\visual studio 2015\Projects\EshopGui\EshopGui\x64\Debug\EshopGui.FirstLogin.resources
C:\Users\User\documents\visual studio 2015\Projects\EshopGui\EshopGui\x64\Debug\EshopGui.ForgotUser.resources
C:\Users\User\documents\visual studio 2015\Projects\EshopGui\EshopGui\x64\Debug\EshopGui.Items.resources
C:\Users\User\documents\visual studio 2015\Projects\EshopGui\EshopGui\x64\Debug\EshopGui.LoginScreen.resources
C:\Users\User\documents\visual studio 2015\Projects\EshopGui\EshopGui\x64\Debug\EshopGui.OrderStatus.resources
C:\Users\User\documents\visual studio 2015\Projects\EshopGui\EshopGui\x64\Debug\EshopGui.OrderUser.resources
C:\Users\User\documents\visual studio 2015\Projects\EshopGui\EshopGui\x64\Debug\EshopGui.UpdateItem.resources
C:\Users\User\documents\visual studio 2015\Projects\EshopGui\EshopGui\x64\Debug\EshopGui.UserScreen.resources
^C:\Users\User\documents\visual studio 2015\Projects\EshopGui\EshopGui\EshopGui.vcxproj
C:\Users\User\documents\visual studio 2015\Projects\EshopGui\EshopGui\x64\Debug\EshopGui.AddItem.resources
C:\Users\User\documents\visual studio 2015\Projects\EshopGui\EshopGui\x64\Debug\EshopGui.AdminScreen.resources
C:\Users\User\documents\visual studio 2015\Projects\EshopGui\EshopGui\x64\Debug\EshopGui.Cart.resources
C:\Users\User\documents\visual studio 2015\Projects\EshopGui\EshopGui\x64\Debug\EshopGui.Catalog.resources
C:\Users\User\documents\visual studio 2015\Projects\EshopGui\EshopGui\x64\Debug\EshopGui.CreateUser.resources
C:\Users\User\documents\visual studio 2015\Projects\EshopGui\EshopGui\x64\Debug\EshopGui.Customers.resources
C:\Users\User\documents\visual studio 2015\Projects\EshopGui\EshopGui\x64\Debug\EshopGui.FirstLogin.resources
C:\Users\User\documents\visual studio 2015\Projects\EshopGui\EshopGui\x64\Debug\EshopGui.ForgotUser.resources
C:\Users\User\documents\visual studio 2015\Projects\EshopGui\EshopGui\x64\Debug\EshopGui.Items.resources
C:\Users\User\documents\visual studio 2015\Projects\EshopGui\EshopGui\x64\Debug\EshopGui.LoginScreen.resources
C:\Users\User\documents\visual studio 2015\Projects\EshopGui\EshopGui\x64\Debug\EshopGui.OrderStatus.resources
C:\Users\User\documents\visual studio 2015\Projects\EshopGui\EshopGui\x64\Debug\EshopGui.OrderUser.resources
C:\Users\User\documents\visual studio 2015\Projects\EshopGui\EshopGui\x64\Debug\EshopGui.UpdateItem.resources
C:\Users\User\documents\visual studio 2015\Projects\EshopGui\EshopGui\x64\Debug\EshopGui.UserScreen.resources
^C:\Users\User\documents\visual studio 2015\Projects\EshopGui\EshopGui\EshopGui.vcxproj
C:\Users\User\documents\visual studio 2015\Projects\EshopGui\EshopGui\x64\Debug\EshopGui.AddItem.resources
C:\Users\User\documents\visual studio 2015\Projects\EshopGui\EshopGui\x64\Debug\EshopGui.AdminScreen.resources
C:\Users\User\documents\visual studio 2015\Projects\EshopGui\EshopGui\x64\Debug\EshopGui.Cart.resources
C:\Users\User\documents\visual studio 2015\Projects\EshopGui\EshopGui\x64\Debug\EshopGui.Catalog.resources
C:\Users\User\documents\visual studio 2015\Projects\EshopGui\EshopGui\x64\Debug\EshopGui.CreateUser.resources
C:\Users\User\documents\visual studio 2015\Projects\EshopGui\EshopGui\x64\Debug\EshopGui.Customers.resources
C:\Users\User\documents\visual studio 2015\Projects\EshopGui\EshopGui\x64\Debug\EshopGui.FirstLogin.resources
C:\Users\User\documents\visual studio 2015\Projects\EshopGui\EshopGui\x64\Debug\EshopGui.ForgotUser.resources
C:\Users\User\documents\visual studio 2015\Projects\EshopGui\EshopGui\x64\Debug\EshopGui.Items.resources
C:\Users\User\documents\visual studio 2015\Projects\EshopGui\EshopGui\x64\Debug\EshopGui.LoginScreen.resources
C:\Users\User\documents\visual studio 2015\Projects\EshopGui\EshopGui\x64\Debug\EshopGui.OrderStatus.resources
C:\Users\User\documents\visual studio 2015\Projects\EshopGui\EshopGui\x64\Debug\EshopGui.OrderUser.resources
C:\Users\User\documents\visual studio 2015\Projects\EshopGui\EshopGui\x64\Debug\EshopGui.UpdateItem.resources
C:\Users\User\documents\visual studio 2015\Projects\EshopGui\EshopGui\x64\Debug\EshopGui.UserScreen.resources
^C:\Users\User\documents\visual studio 2015\Projects\EshopGui\EshopGui\EshopGui.vcxproj
C:\Users\User\documents\visual studio 2015\Projects\EshopGui\EshopGui\x64\Debug\EshopGui.AddItem.resources
C:\Users\User\documents\visual studio 2015\Projects\EshopGui\EshopGui\x64\Debug\EshopGui.AdminScreen.resources
C:\Users\User\documents\visual studio 2015\Projects\EshopGui\EshopGui\x64\Debug\EshopGui.Cart.resources
C:\Users\User\documents\visual studio 2015\Projects\EshopGui\EshopGui\x64\Debug\EshopGui.Catalog.resources
C:\Users\User\documents\visual studio 2015\Projects\EshopGui\EshopGui\x64\Debug\EshopGui.CreateUser.resources
C:\Users\User\documents\visual studio 2015\Projects\EshopGui\EshopGui\x64\Debug\EshopGui.Customers.resources
C:\Users\User\documents\visual studio 2015\Projects\EshopGui\EshopGui\x64\Debug\EshopGui.FirstLogin.resources
C:\Users\User\documents\visual studio 2015\Projects\EshopGui\EshopGui\x64\Debug\EshopGui.ForgotUser.resources
C:\Users\User\documents\visual studio 2015\Projects\EshopGui\EshopGui\x64\Debug\EshopGui.Items.resources
C:\Users\User\documents\visual studio 2015\Projects\EshopGui\EshopGui\x64\Debug\EshopGui.LoginScreen.resources
C:\Users\User\documents\visual studio 2015\Projects\EshopGui\EshopGui\x64\Debug\EshopGui.OrderStatus.resources
C:\Users\User\documents\visual studio 2015\Projects\EshopGui\EshopGui\x64\Debug\EshopGui.OrderUser.resources
C:\Users\User\documents\visual studio 2015\Projects\EshopGui\EshopGui\x64\Debug\EshopGui.UpdateItem.resources
C:\Users\User\documents\visual studio 2015\Projects\EshopGui\EshopGui\x64\Debug\EshopGui.UserScreen.resources
^C:\Users\User\Documents\Visual Studio 2015\Projects\EshopGui\EshopGui\EshopGui.vcxproj
C:\Users\User\Documents\Visual Studio 2015\Projects\EshopGui\EshopGui\x64\Debug\EshopGui.AddItem.resources
C:\Users\User\Documents\Visual Studio 2015\Projects\EshopGui\EshopGui\x64\Debug\EshopGui.AdminScreen.resources
C:\Users\User\Documents\Visual Studio 2015\Projects\EshopGui\EshopGui\x64\Debug\EshopGui.Cart.resources
C:\Users\User\Documents\Visual Studio 2015\Projects\EshopGui\EshopGui\x64\Debug\EshopGui.Catalog.resources
C:\Users\User\Documents\Visual Studio 2015\Projects\EshopGui\EshopGui\x64\Debug\EshopGui.CreateUser.resources
C:\Users\User\Documents\Visual Studio 2015\Projects\EshopGui\EshopGui\x64\Debug\EshopGui.Customers.resources
C:\Users\User\Documents\Visual Studio 2015\Projects\EshopGui\EshopGui\x64\Debug\EshopGui.FirstLogin.resources
C:\Users\User\Documents\Visual Studio 2015\Projects\EshopGui\EshopGui\x64\Debug\EshopGui.ForgotUser.resources
C:\Users\User\Documents\Visual Studio 2015\Projects\EshopGui\EshopGui\x64\Debug\EshopGui.Items.resources
C:\Users\User\Documents\Visual Studio 2015\Projects\EshopGui\EshopGui\x64\Debug\EshopGui.LoginScreen.resources
C:\Users\User\Documents\Visual Studio 2015\Projects\EshopGui\EshopGui\x64\Debug\EshopGui.OrderStatus.resources
C:\Users\User\Documents\Visual Studio 2015\Projects\EshopGui\EshopGui\x64\Debug\EshopGui.OrderUser.resources
C:\Users\User\Documents\Visual Studio 2015\Projects\EshopGui\EshopGui\x64\Debug\EshopGui.Task.resources
C:\Users\User\Documents\Visual Studio 2015\Projects\EshopGui\EshopGui\x64\Debug\EshopGui.UpdateItem.resources
C:\Users\User\Documents\Visual Studio 2015\Projects\EshopGui\EshopGui\x64\Debug\EshopGui.UserScreen.resources
^C:\Users\User\Documents\Visual Studio 2015\Projects\EshopGui\EshopGui\EshopGui.vcxproj
C:\Users\User\Documents\Visual Studio 2015\Projects\EshopGui\EshopGui\x64\Debug\EshopGui.AddItem.resources
C:\Users\User\Documents\Visual Studio 2015\Projects\EshopGui\EshopGui\x64\Debug\EshopGui.AdminScreen.resources
C:\Users\User\Documents\Visual Studio 2015\Projects\EshopGui\EshopGui\x64\Debug\EshopGui.Cart.resources
C:\Users\User\Documents\Visual Studio 2015\Projects\EshopGui\EshopGui\x64\Debug\EshopGui.Catalog.resources
C:\Users\User\Documents\Visual Studio 2015\Projects\EshopGui\EshopGui\x64\Debug\EshopGui.CreateUser.resources
C:\Users\User\Documents\Visual Studio 2015\Projects\EshopGui\EshopGui\x64\Debug\EshopGui.Customers.resources
C:\Users\User\Documents\Visual Studio 2015\Projects\EshopGui\EshopGui\x64\Debug\EshopGui.FirstLogin.resources
C:\Users\User\Documents\Visual Studio 2015\Projects\EshopGui\EshopGui\x64\Debug\EshopGui.ForgotUser.resources
C:\Users\User\Documents\Visual Studio 2015\Projects\EshopGui\EshopGui\x64\Debug\EshopGui.Items.resources
C:\Users\User\Documents\Visual Studio 2015\Projects\EshopGui\EshopGui\x64\Debug\EshopGui.LoginScreen.resources
C:\Users\User\Documents\Visual Studio 2015\Projects\EshopGui\EshopGui\x64\Debug\EshopGui.OrderStatus.resources
C:\Users\User\Documents\Visual Studio 2015\Projects\EshopGui\EshopGui\x64\Debug\EshopGui.OrderUser.resources
C:\Users\User\Documents\Visual Studio 2015\Projects\EshopGui\EshopGui\x64\Debug\EshopGui.Task.resources
C:\Users\User\Documents\Visual Studio 2015\Projects\EshopGui\EshopGui\x64\Debug\EshopGui.UpdateItem.resources
C:\Users\User\Documents\Visual Studio 2015\Projects\EshopGui\EshopGui\x64\Debug\EshopGui.UserScreen.resources
^C:\Users\User\Documents\Visual Studio 2015\Projects\EshopGui\EshopGui\EshopGui.vcxproj
C:\Users\User\Documents\Visual Studio 2015\Projects\EshopGui\EshopGui\x64\Debug\EshopGui.AddItem.resources
C:\Users\User\Documents\Visual Studio 2015\Projects\EshopGui\EshopGui\x64\Debug\EshopGui.AdminScreen.resources
C:\Users\User\Documents\Visual Studio 2015\Projects\EshopGui\EshopGui\x64\Debug\EshopGui.Cart.resources
C:\Users\User\Documents\Visual Studio 2015\Projects\EshopGui\EshopGui\x64\Debug\EshopGui.Catalog.resources
C:\Users\User\Documents\Visual Studio 2015\Projects\EshopGui\EshopGui\x64\Debug\EshopGui.CreateUser.resources
C:\Users\User\Documents\Visual Studio 2015\Projects\EshopGui\EshopGui\x64\Debug\EshopGui.Customers.resources
C:\Users\User\Documents\Visual Studio 2015\Projects\EshopGui\EshopGui\x64\Debug\EshopGui.FirstLogin.resources
C:\Users\User\Documents\Visual Studio 2015\Projects\EshopGui\EshopGui\x64\Debug\EshopGui.ForgotUser.resources
C:\Users\User\Documents\Visual Studio 2015\Projects\EshopGui\EshopGui\x64\Debug\EshopGui.Items.resources
C:\Users\User\Documents\Visual Studio 2015\Projects\EshopGui\EshopGui\x64\Debug\EshopGui.LoginScreen.resources
C:\Users\User\Documents\Visual Studio 2015\Projects\EshopGui\EshopGui\x64\Debug\EshopGui.OrderStatus.resources
C:\Users\User\Documents\Visual Studio 2015\Projects\EshopGui\EshopGui\x64\Debug\EshopGui.OrderUser.resources
C:\Users\User\Documents\Visual Studio 2015\Projects\EshopGui\EshopGui\x64\Debug\EshopGui.Task.resources
C:\Users\User\Documents\Visual Studio 2015\Projects\EshopGui\EshopGui\x64\Debug\EshopGui.UpdateItem.resources
C:\Users\User\Documents\Visual Studio 2015\Projects\EshopGui\EshopGui\x64\Debug\EshopGui.UserScreen.resources
^C:\Users\User\Documents\Visual Studio 2015\Projects\EshopGui\EshopGui\EshopGui.vcxproj
C:\Users\User\Documents\Visual Studio 2015\Projects\EshopGui\EshopGui\x64\Debug\EshopGui.AddItem.resources
C:\Users\User\Documents\Visual Studio 2015\Projects\EshopGui\EshopGui\x64\Debug\EshopGui.AdminScreen.resources
C:\Users\User\Documents\Visual Studio 2015\Projects\EshopGui\EshopGui\x64\Debug\EshopGui.Cart.resources
C:\Users\User\Documents\Visual Studio 2015\Projects\EshopGui\EshopGui\x64\Debug\EshopGui.Catalog.resources
C:\Users\User\Documents\Visual Studio 2015\Projects\EshopGui\EshopGui\x64\Debug\EshopGui.CreateUser.resources
C:\Users\User\Documents\Visual Studio 2015\Projects\EshopGui\EshopGui\x64\Debug\EshopGui.Customers.resources
C:\Users\User\Documents\Visual Studio 2015\Projects\EshopGui\EshopGui\x64\Debug\EshopGui.FirstLogin.resources
C:\Users\User\Documents\Visual Studio 2015\Projects\EshopGui\EshopGui\x64\Debug\EshopGui.ForgotUser.resources
C:\Users\User\Documents\Visual Studio 2015\Projects\EshopGui\EshopGui\x64\Debug\EshopGui.Items.resources
C:\Users\User\Documents\Visual Studio 2015\Projects\EshopGui\EshopGui\x64\Debug\EshopGui.LoginScreen.resources
C:\Users\User\Documents\Visual Studio 2015\Projects\EshopGui\EshopGui\x64\Debug\EshopGui.OrderStatus.resources
C:\Users\User\Documents\Visual Studio 2015\Projects\EshopGui\EshopGui\x64\Debug\EshopGui.OrderUser.resources
C:\Users\User\Documents\Visual Studio 2015\Projects\EshopGui\EshopGui\x64\Debug\EshopGui.Task.resources
C:\Users\User\Documents\Visual Studio 2015\Projects\EshopGui\EshopGui\x64\Debug\EshopGui.UpdateItem.resources
C:\Users\User\Documents\Visual Studio 2015\Projects\EshopGui\EshopGui\x64\Debug\EshopGui.UserScreen.resources
^C:\Users\User\Documents\Visual Studio 2015\Projects\EshopGui\EshopGui\EshopGui.vcxproj
C:\Users\User\Documents\Visual Studio 2015\Projects\EshopGui\EshopGui\x64\Debug\EshopGui.AddItem.resources
C:\Users\User\Documents\Visual Studio 2015\Projects\EshopGui\EshopGui\x64\Debug\EshopGui.AdminScreen.resources
C:\Users\User\Documents\Visual Studio 2015\Projects\EshopGui\EshopGui\x64\Debug\EshopGui.Cart.resources
C:\Users\User\Documents\Visual Studio 2015\Projects\EshopGui\EshopGui\x64\Debug\EshopGui.Catalog.resources
C:\Users\User\Documents\Visual Studio 2015\Projects\EshopGui\EshopGui\x64\Debug\EshopGui.CreateUser.resources
C:\Users\User\Documents\Visual Studio 2015\Projects\EshopGui\EshopGui\x64\Debug\EshopGui.Customers.resources
C:\Users\User\Documents\Visual Studio 2015\Projects\EshopGui\EshopGui\x64\Debug\EshopGui.FirstLogin.resources
C:\Users\User\Documents\Visual Studio 2015\Projects\EshopGui\EshopGui\x64\Debug\EshopGui.ForgotUser.resources
C:\Users\User\Documents\Visual Studio 2015\Projects\EshopGui\EshopGui\x64\Debug\EshopGui.Items.resources
C:\Users\User\Documents\Visual Studio 2015\Projects\EshopGui\EshopGui\x64\Debug\EshopGui.LoginScreen.resources
C:\Users\User\Documents\Visual Studio 2015\Projects\EshopGui\EshopGui\x64\Debug\EshopGui.OrderStatus.resources
C:\Users\User\Documents\Visual Studio 2015\Projects\EshopGui\EshopGui\x64\Debug\EshopGui.OrderUser.resources
C:\Users\User\Documents\Visual Studio 2015\Projects\EshopGui\EshopGui\x64\Debug\EshopGui.Task.resources
C:\Users\User\Documents\Visual Studio 2015\Projects\EshopGui\EshopGui\x64\Debug\EshopGui.UpdateItem.resources
C:\Users\User\Documents\Visual Studio 2015\Projects\EshopGui\EshopGui\x64\Debug\EshopGui.UserScreen.resources
^C:\Users\User\Documents\Visual Studio 2015\Projects\EshopGui\EshopGui\EshopGui.vcxproj
C:\Users\User\Documents\Visual Studio 2015\Projects\EshopGui\EshopGui\x64\Debug\EshopGui.AddItem.resources
C:\Users\User\Documents\Visual Studio 2015\Projects\EshopGui\EshopGui\x64\Debug\EshopGui.AdminScreen.resources
C:\Users\User\Documents\Visual Studio 2015\Projects\EshopGui\EshopGui\x64\Debug\EshopGui.Cart.resources
C:\Users\User\Documents\Visual Studio 2015\Projects\EshopGui\EshopGui\x64\Debug\EshopGui.Catalog.resources
C:\Users\User\Documents\Visual Studio 2015\Projects\EshopGui\EshopGui\x64\Debug\EshopGui.CreateUser.resources
C:\Users\User\Documents\Visual Studio 2015\Projects\EshopGui\EshopGui\x64\Debug\EshopGui.Customers.resources
C:\Users\User\Documents\Visual Studio 2015\Projects\EshopGui\EshopGui\x64\Debug\EshopGui.FirstLogin.resources
C:\Users\User\Documents\Visual Studio 2015\Projects\EshopGui\EshopGui\x64\Debug\EshopGui.ForgotUser.resources
C:\Users\User\Documents\Visual Studio 2015\Projects\EshopGui\EshopGui\x64\Debug\EshopGui.Items.resources
C:\Users\User\Documents\Visual Studio 2015\Projects\EshopGui\EshopGui\x64\Debug\EshopGui.LoginScreen.resources
C:\Users\User\Documents\Visual Studio 2015\Projects\EshopGui\EshopGui\x64\Debug\EshopGui.OrderStatus.resources
C:\Users\User\Documents\Visual Studio 2015\Projects\EshopGui\EshopGui\x64\Debug\EshopGui.OrderUser.resources
C:\Users\User\Documents\Visual Studio 2015\Projects\EshopGui\EshopGui\x64\Debug\EshopGui.Task.resources
C:\Users\User\Documents\Visual Studio 2015\Projects\EshopGui\EshopGui\x64\Debug\EshopGui.UpdateItem.resources
C:\Users\User\Documents\Visual Studio 2015\Projects\EshopGui\EshopGui\x64\Debug\EshopGui.UserScreen.resources
^C:\Users\User\Documents\Visual Studio 2015\Projects\EshopGui\EshopGui\EshopGui.vcxproj
C:\Users\User\Documents\Visual Studio 2015\Projects\EshopGui\EshopGui\x64\Debug\EshopGui.AddItem.resources
C:\Users\User\Documents\Visual Studio 2015\Projects\EshopGui\EshopGui\x64\Debug\EshopGui.AdminScreen.resources
C:\Users\User\Documents\Visual Studio 2015\Projects\EshopGui\EshopGui\x64\Debug\EshopGui.Cart.resources
C:\Users\User\Documents\Visual Studio 2015\Projects\EshopGui\EshopGui\x64\Debug\EshopGui.Catalog.resources
C:\Users\User\Documents\Visual Studio 2015\Projects\EshopGui\EshopGui\x64\Debug\EshopGui.CreateUser.resources
C:\Users\User\Documents\Visual Studio 2015\Projects\EshopGui\EshopGui\x64\Debug\EshopGui.Customers.resources
C:\Users\User\Documents\Visual Studio 2015\Projects\EshopGui\EshopGui\x64\Debug\EshopGui.FirstLogin.resources
C:\Users\User\Documents\Visual Studio 2015\Projects\EshopGui\EshopGui\x64\Debug\EshopGui.ForgotUser.resources
C:\Users\User\Documents\Visual Studio 2015\Projects\EshopGui\EshopGui\x64\Debug\EshopGui.Items.resources
C:\Users\User\Documents\Visual Studio 2015\Projects\EshopGui\EshopGui\x64\Debug\EshopGui.LoginScreen.resources
C:\Users\User\Documents\Visual Studio 2015\Projects\EshopGui\EshopGui\x64\Debug\EshopGui.OrderStatus.resources
C:\Users\User\Documents\Visual Studio 2015\Projects\EshopGui\EshopGui\x64\Debug\EshopGui.OrderUser.resources
C:\Users\User\Documents\Visual Studio 2015\Projects\EshopGui\EshopGui\x64\Debug\EshopGui.Task.resources
C:\Users\User\Documents\Visual Studio 2015\Projects\EshopGui\EshopGui\x64\Debug\EshopGui.UpdateItem.resources
C:\Users\User\Documents\Visual Studio 2015\Projects\EshopGui\EshopGui\x64\Debug\EshopGui.UserScreen.resources
^C:\Users\User\Documents\Visual Studio 2015\Projects\EshopGui\EshopGui\EshopGui.vcxproj
C:\Users\User\Documents\Visual Studio 2015\Projects\EshopGui\EshopGui\x64\Debug\EshopGui.AddItem.resources
C:\Users\User\Documents\Visual Studio 2015\Projects\EshopGui\EshopGui\x64\Debug\EshopGui.AdminScreen.resources
C:\Users\User\Documents\Visual Studio 2015\Projects\EshopGui\EshopGui\x64\Debug\EshopGui.Cart.resources
C:\Users\User\Documents\Visual Studio 2015\Projects\EshopGui\EshopGui\x64\Debug\EshopGui.Catalog.resources
C:\Users\User\Documents\Visual Studio 2015\Projects\EshopGui\EshopGui\x64\Debug\EshopGui.CreateUser.resources
C:\Users\User\Documents\Visual Studio 2015\Projects\EshopGui\EshopGui\x64\Debug\EshopGui.Customers.resources
C:\Users\User\Documents\Visual Studio 2015\Projects\EshopGui\EshopGui\x64\Debug\EshopGui.FirstLogin.resources
C:\Users\User\Documents\Visual Studio 2015\Projects\EshopGui\EshopGui\x64\Debug\EshopGui.ForgotUser.resources
C:\Users\User\Documents\Visual Studio 2015\Projects\EshopGui\EshopGui\x64\Debug\EshopGui.Items.resources
C:\Users\User\Documents\Visual Studio 2015\Projects\EshopGui\EshopGui\x64\Debug\EshopGui.LoginScreen.resources
C:\Users\User\Documents\Visual Studio 2015\Projects\EshopGui\EshopGui\x64\Debug\EshopGui.OrderStatus.resources
C:\Users\User\Documents\Visual Studio 2015\Projects\EshopGui\EshopGui\x64\Debug\EshopGui.OrderUser.resources
C:\Users\User\Documents\Visual Studio 2015\Projects\EshopGui\EshopGui\x64\Debug\EshopGui.Task.resources
C:\Users\User\Documents\Visual Studio 2015\Projects\EshopGui\EshopGui\x64\Debug\EshopGui.UpdateItem.resources
C:\Users\User\Documents\Visual Studio 2015\Projects\EshopGui\EshopGui\x64\Debug\EshopGui.UserScreen.resources
^C:\Users\User\Documents\Visual Studio 2015\Projects\EshopGui\EshopGui\EshopGui.vcxproj
C:\Users\User\Documents\Visual Studio 2015\Projects\EshopGui\EshopGui\x64\Debug\EshopGui.AddItem.resources
C:\Users\User\Documents\Visual Studio 2015\Projects\EshopGui\EshopGui\x64\Debug\EshopGui.AdminScreen.resources
C:\Users\User\Documents\Visual Studio 2015\Projects\EshopGui\EshopGui\x64\Debug\EshopGui.Cart.resources
C:\Users\User\Documents\Visual Studio 2015\Projects\EshopGui\EshopGui\x64\Debug\EshopGui.Catalog.resources
C:\Users\User\Documents\Visual Studio 2015\Projects\EshopGui\EshopGui\x64\Debug\EshopGui.CreateUser.resources
C:\Users\User\Documents\Visual Studio 2015\Projects\EshopGui\EshopGui\x64\Debug\EshopGui.Customers.resources
C:\Users\User\Documents\Visual Studio 2015\Projects\EshopGui\EshopGui\x64\Debug\EshopGui.FirstLogin.resources
C:\Users\User\Documents\Visual Studio 2015\Projects\EshopGui\EshopGui\x64\Debug\EshopGui.ForgotUser.resources
C:\Users\User\Documents\Visual Studio 2015\Projects\EshopGui\EshopGui\x64\Debug\EshopGui.Items.resources
C:\Users\User\Documents\Visual Studio 2015\Projects\EshopGui\EshopGui\x64\Debug\EshopGui.LoginScreen.resources
C:\Users\User\Documents\Visual Studio 2015\Projects\EshopGui\EshopGui\x64\Debug\EshopGui.OrderStatus.resources
C:\Users\User\Documents\Visual Studio 2015\Projects\EshopGui\EshopGui\x64\Debug\EshopGui.OrderUser.resources
C:\Users\User\Documents\Visual Studio 2015\Projects\EshopGui\EshopGui\x64\Debug\EshopGui.Task.resources
C:\Users\User\Documents\Visual Studio 2015\Projects\EshopGui\EshopGui\x64\Debug\EshopGui.UpdateItem.resources
C:\Users\User\Documents\Visual Studio 2015\Projects\EshopGui\EshopGui\x64\Debug\EshopGui.UserScreen.resources
^C:\Users\User\Documents\Visual Studio 2015\Projects\EshopGui\EshopGui\EshopGui.vcxproj
C:\Users\User\Documents\Visual Studio 2015\Projects\EshopGui\EshopGui\x64\Debug\EshopGui.AddItem.resources
C:\Users\User\Documents\Visual Studio 2015\Projects\EshopGui\EshopGui\x64\Debug\EshopGui.AdminScreen.resources
C:\Users\User\Documents\Visual Studio 2015\Projects\EshopGui\EshopGui\x64\Debug\EshopGui.Cart.resources
C:\Users\User\Documents\Visual Studio 2015\Projects\EshopGui\EshopGui\x64\Debug\EshopGui.Catalog.resources
C:\Users\User\Documents\Visual Studio 2015\Projects\EshopGui\EshopGui\x64\Debug\EshopGui.CreateUser.resources
C:\Users\User\Documents\Visual Studio 2015\Projects\EshopGui\EshopGui\x64\Debug\EshopGui.Customers.resources
C:\Users\User\Documents\Visual Studio 2015\Projects\EshopGui\EshopGui\x64\Debug\EshopGui.FirstLogin.resources
C:\Users\User\Documents\Visual Studio 2015\Projects\EshopGui\EshopGui\x64\Debug\EshopGui.ForgotUser.resources
C:\Users\User\Documents\Visual Studio 2015\Projects\EshopGui\EshopGui\x64\Debug\EshopGui.Items.resources
C:\Users\User\Documents\Visual Studio 2015\Projects\EshopGui\EshopGui\x64\Debug\EshopGui.LoginScreen.resources
C:\Users\User\Documents\Visual Studio 2015\Projects\EshopGui\EshopGui\x64\Debug\EshopGui.OrderStatus.resources
C:\Users\User\Documents\Visual Studio 2015\Projects\EshopGui\EshopGui\x64\Debug\EshopGui.OrderUser.resources
C:\Users\User\Documents\Visual Studio 2015\Projects\EshopGui\EshopGui\x64\Debug\EshopGui.Task.resources
C:\Users\User\Documents\Visual Studio 2015\Projects\EshopGui\EshopGui\x64\Debug\EshopGui.UpdateItem.resources
C:\Users\User\Documents\Visual Studio 2015\Projects\EshopGui\EshopGui\x64\Debug\EshopGui.UserScreen.resources
