^C:\USERS\USER\DOCUMENTS\VISUAL STUDIO 2015\PROJECTS\ESHOPGUI\ESHOPGUI\X64\DEBUG\.NETFRAMEWORK,VERSION=V4.5.2.ASSEMBLYATTRIBUTES.OBJ|C:\USERS\USER\DOCUMENTS\VISUAL STUDIO 2015\PROJECTS\ESHOPGUI\ESHOPGUI\X64\DEBUG\ADDITEM.OBJ|C:\USERS\USER\DOCUMENTS\VISUAL STUDIO 2015\PROJECTS\ESHOPGUI\ESHOPGUI\X64\DEBUG\ADMIN.OBJ|C:\USERS\USER\DOCUMENTS\VISUAL STUDIO 2015\PROJECTS\ESHOPGUI\ESHOPGUI\X64\DEBUG\ADMINSCREEN.OBJ|C:\USERS\USER\DOCUMENTS\VISUAL STUDIO 2015\PROJECTS\ESHOPGUI\ESHOPGUI\X64\DEBUG\CART.OBJ|C:\USERS\USER\DOCUMENTS\VISUAL STUDIO 2015\PROJECTS\ESHOPGUI\ESHOPGUI\X64\DEBUG\CATALOG.OBJ|C:\USERS\USER\DOCUMENTS\VISUAL STUDIO 2015\PROJECTS\ESHOPGUI\ESHOPGUI\X64\DEBUG\COMPANY.OBJ|C:\USERS\USER\DOCUMENTS\VISUAL STUDIO 2015\PROJECTS\ESHOPGUI\ESHOPGUI\X64\DEBUG\COMPIUTER.OBJ|C:\USERS\USER\DOCUMENTS\VISUAL STUDIO 2015\PROJECTS\ESHOPGUI\ESHOPGUI\X64\DEBUG\CREATEUSER.OBJ|C:\USERS\USER\DOCUMENTS\VISUAL STUDIO 2015\PROJECTS\ESHOPGUI\ESHOPGUI\X64\DEBUG\CUSTOMER.OBJ|C:\USERS\USER\DOCUMENTS\VISUAL STUDIO 2015\PROJECTS\ESHOPGUI\ESHOPGUI\X64\DEBUG\CUSTOMERS.OBJ|C:\USERS\USER\DOCUMENTS\VISUAL STUDIO 2015\PROJECTS\ESHOPGUI\ESHOPGUI\X64\DEBUG\FIRSTLOGIN.OBJ|C:\USERS\USER\DOCUMENTS\VISUAL STUDIO 2015\PROJECTS\ESHOPGUI\ESHOPGUI\X64\DEBUG\FORGOTUSER.OBJ|C:\USERS\USER\DOCUMENTS\VISUAL STUDIO 2015\PROJECTS\ESHOPGUI\ESHOPGUI\X64\DEBUG\ITEMS.OBJ|C:\USERS\USER\DOCUMENTS\VISUAL STUDIO 2015\PROJECTS\ESHOPGUI\ESHOPGUI\X64\DEBUG\LOGINSCREEN.OBJ|C:\USERS\USER\DOCUMENTS\VISUAL STUDIO 2015\PROJECTS\ESHOPGUI\ESHOPGUI\X64\DEBUG\ORDER.OBJ|C:\USERS\USER\DOCUMENTS\VISUAL STUDIO 2015\PROJECTS\ESHOPGUI\ESHOPGUI\X64\DEBUG\ORDERSTATUS.OBJ|C:\USERS\USER\DOCUMENTS\VISUAL STUDIO 2015\PROJECTS\ESHOPGUI\ESHOPGUI\X64\DEBUG\ORDERUSER.OBJ|C:\USERS\USER\DOCUMENTS\VISUAL STUDIO 2015\PROJECTS\ESHOPGUI\ESHOPGUI\X64\DEBUG\PHYSICAL.OBJ|C:\USERS\USER\DOCUMENTS\VISUAL STUDIO 2015\PROJECTS\ESHOPGUI\ESHOPGUI\X64\DEBUG\PRODUCT.OBJ|C:\USERS\USER\DOCUMENTS\VISUAL STUDIO 2015\PROJECTS\ESHOPGUI\ESHOPGUI\X64\DEBUG\SHOPPINGCART.OBJ|C:\USERS\USER\DOCUMENTS\VISUAL STUDIO 2015\PROJECTS\ESHOPGUI\ESHOPGUI\X64\DEBUG\SMARTPHONE.OBJ|C:\USERS\USER\DOCUMENTS\VISUAL STUDIO 2015\PROJECTS\ESHOPGUI\ESHOPGUI\X64\DEBUG\TASK.OBJ|C:\USERS\USER\DOCUMENTS\VISUAL STUDIO 2015\PROJECTS\ESHOPGUI\ESHOPGUI\X64\DEBUG\TELEVISION.OBJ|C:\USERS\USER\DOCUMENTS\VISUAL STUDIO 2015\PROJECTS\ESHOPGUI\ESHOPGUI\X64\DEBUG\UPDATEITEM.OBJ|C:\USERS\USER\DOCUMENTS\VISUAL STUDIO 2015\PROJECTS\ESHOPGUI\ESHOPGUI\X64\DEBUG\USER.OBJ|C:\USERS\USER\DOCUMENTS\VISUAL STUDIO 2015\PROJECTS\ESHOPGUI\ESHOPGUI\X64\DEBUG\USERSCREEN.OBJ
C:\WINDOWS\GLOBALIZATION\SORTING\SORTDEFAULT.NLS
C:\USERS\USER\DOCUMENTS\VISUAL STUDIO 2015\PROJECTS\ESHOPGUI\ESHOPGUI\X64\DEBUG\ADDITEM.OBJ
C:\USERS\USER\DOCUMENTS\VISUAL STUDIO 2015\PROJECTS\ESHOPGUI\ESHOPGUI\X64\DEBUG\ADMIN.OBJ
C:\USERS\USER\DOCUMENTS\VISUAL STUDIO 2015\PROJECTS\ESHOPGUI\ESHOPGUI\X64\DEBUG\ADMINSCREEN.OBJ
C:\USERS\USER\DOCUMENTS\VISUAL STUDIO 2015\PROJECTS\ESHOPGUI\ESHOPGUI\X64\DEBUG\CART.OBJ
C:\USERS\USER\DOCUMENTS\VISUAL STUDIO 2015\PROJECTS\ESHOPGUI\ESHOPGUI\X64\DEBUG\CATALOG.OBJ
C:\USERS\USER\DOCUMENTS\VISUAL STUDIO 2015\PROJECTS\ESHOPGUI\ESHOPGUI\X64\DEBUG\COMPANY.OBJ
C:\USERS\USER\DOCUMENTS\VISUAL STUDIO 2015\PROJECTS\ESHOPGUI\ESHOPGUI\X64\DEBUG\COMPIUTER.OBJ
C:\USERS\USER\DOCUMENTS\VISUAL STUDIO 2015\PROJECTS\ESHOPGUI\ESHOPGUI\X64\DEBUG\CREATEUSER.OBJ
C:\USERS\USER\DOCUMENTS\VISUAL STUDIO 2015\PROJECTS\ESHOPGUI\ESHOPGUI\X64\DEBUG\CUSTOMER.OBJ
C:\USERS\USER\DOCUMENTS\VISUAL STUDIO 2015\PROJECTS\ESHOPGUI\ESHOPGUI\X64\DEBUG\CUSTOMERS.OBJ
C:\USERS\USER\DOCUMENTS\VISUAL STUDIO 2015\PROJECTS\ESHOPGUI\ESHOPGUI\X64\DEBUG\FIRSTLOGIN.OBJ
C:\USERS\USER\DOCUMENTS\VISUAL STUDIO 2015\PROJECTS\ESHOPGUI\ESHOPGUI\X64\DEBUG\FORGOTUSER.OBJ
C:\USERS\USER\DOCUMENTS\VISUAL STUDIO 2015\PROJECTS\ESHOPGUI\ESHOPGUI\X64\DEBUG\ITEMS.OBJ
C:\USERS\USER\DOCUMENTS\VISUAL STUDIO 2015\PROJECTS\ESHOPGUI\ESHOPGUI\X64\DEBUG\LOGINSCREEN.OBJ
C:\USERS\USER\DOCUMENTS\VISUAL STUDIO 2015\PROJECTS\ESHOPGUI\ESHOPGUI\X64\DEBUG\ORDER.OBJ
C:\USERS\USER\DOCUMENTS\VISUAL STUDIO 2015\PROJECTS\ESHOPGUI\ESHOPGUI\X64\DEBUG\ORDERSTATUS.OBJ
C:\USERS\USER\DOCUMENTS\VISUAL STUDIO 2015\PROJECTS\ESHOPGUI\ESHOPGUI\X64\DEBUG\ORDERUSER.OBJ
C:\USERS\USER\DOCUMENTS\VISUAL STUDIO 2015\PROJECTS\ESHOPGUI\ESHOPGUI\X64\DEBUG\PHYSICAL.OBJ
C:\USERS\USER\DOCUMENTS\VISUAL STUDIO 2015\PROJECTS\ESHOPGUI\ESHOPGUI\X64\DEBUG\PRODUCT.OBJ
C:\USERS\USER\DOCUMENTS\VISUAL STUDIO 2015\PROJECTS\ESHOPGUI\ESHOPGUI\X64\DEBUG\SHOPPINGCART.OBJ
C:\USERS\USER\DOCUMENTS\VISUAL STUDIO 2015\PROJECTS\ESHOPGUI\ESHOPGUI\X64\DEBUG\SMARTPHONE.OBJ
C:\USERS\USER\DOCUMENTS\VISUAL STUDIO 2015\PROJECTS\ESHOPGUI\ESHOPGUI\X64\DEBUG\TASK.OBJ
C:\USERS\USER\DOCUMENTS\VISUAL STUDIO 2015\PROJECTS\ESHOPGUI\ESHOPGUI\X64\DEBUG\TELEVISION.OBJ
C:\USERS\USER\DOCUMENTS\VISUAL STUDIO 2015\PROJECTS\ESHOPGUI\ESHOPGUI\X64\DEBUG\UPDATEITEM.OBJ
C:\USERS\USER\DOCUMENTS\VISUAL STUDIO 2015\PROJECTS\ESHOPGUI\ESHOPGUI\X64\DEBUG\USER.OBJ
C:\USERS\USER\DOCUMENTS\VISUAL STUDIO 2015\PROJECTS\ESHOPGUI\ESHOPGUI\X64\DEBUG\USERSCREEN.OBJ
C:\USERS\USER\DOCUMENTS\VISUAL STUDIO 2015\PROJECTS\ESHOPGUI\ESHOPGUI\X64\DEBUG\.NETFRAMEWORK,VERSION=V4.5.2.ASSEMBLYATTRIBUTES.OBJ
C:\PROGRAM FILES (X86)\MICROSOFT VISUAL STUDIO 14.0\VC\BIN\X86_AMD64\1033\LINKUI.DLL
C:\PROGRAM FILES (X86)\MICROSOFT VISUAL STUDIO 14.0\VC\BIN\X86_AMD64\LINK.EXE
C:\WINDOWS\SYSTEM32\TZRES.DLL
C:\WINDOWS\MICROSOFT.NET\FRAMEWORK\V2.0.50727\MSCORWKS.DLL
C:\WINDOWS\MICROSOFT.NET\FRAMEWORK\V4.0.30319\CLR.DLL
C:\PROGRAM FILES (X86)\MICROSOFT VISUAL STUDIO 14.0\VC\BIN\X86_AMD64\LINK.EXE.CONFIG
C:\PROGRAM FILES (X86)\MICROSOFT VISUAL STUDIO 14.0\VC\LIB\AMD64\MSVCPRTD.LIB
C:\PROGRAM FILES (X86)\WINDOWS KITS\8.1\LIB\WINV6.3\UM\X64\UUID.LIB
C:\PROGRAM FILES (X86)\MICROSOFT VISUAL STUDIO 14.0\VC\LIB\AMD64\COMSUPP.LIB
C:\PROGRAM FILES (X86)\WINDOWS KITS\8.1\LIB\WINV6.3\UM\X64\OLEAUT32.LIB
C:\PROGRAM FILES (X86)\MICROSOFT VISUAL STUDIO 14.0\VC\LIB\AMD64\MSVCRTD.LIB
C:\PROGRAM FILES (X86)\MICROSOFT VISUAL STUDIO 14.0\VC\LIB\AMD64\OLDNAMES.LIB
C:\PROGRAM FILES (X86)\MICROSOFT VISUAL STUDIO 14.0\VC\LIB\AMD64\MSVCMRTD.LIB
C:\PROGRAM FILES (X86)\WINDOWS KITS\8.1\LIB\WINV6.3\UM\X64\MSCOREE.LIB
C:\PROGRAM FILES (X86)\WINDOWS KITS\8.1\LIB\WINV6.3\UM\X64\KERNEL32.LIB
C:\PROGRAM FILES (X86)\WINDOWS KITS\10\LIB\10.0.10240.0\UCRT\X64\UCRTD.LIB
C:\PROGRAM FILES (X86)\MICROSOFT VISUAL STUDIO 14.0\VC\LIB\AMD64\VCRUNTIMED.LIB
C:\PROGRAM FILES (X86)\WINDOWS KITS\8.1\BIN\X86\RC.EXE
C:\PROGRAM FILES (X86)\MICROSOFT VISUAL STUDIO 14.0\VC\BIN\CVTRES.EXE
C:\PROGRAM FILES (X86)\MICROSOFT VISUAL STUDIO 14.0\VC\BIN\MSPDBSRV.EXE
C:\USERS\USER\DOCUMENTS\VISUAL STUDIO 2015\PROJECTS\ESHOPGUI\ESHOPGUI\X64\DEBUG\ESHOPGUI.ADDITEM.RESOURCES
C:\USERS\USER\DOCUMENTS\VISUAL STUDIO 2015\PROJECTS\ESHOPGUI\ESHOPGUI\X64\DEBUG\ESHOPGUI.ADMINSCREEN.RESOURCES
C:\USERS\USER\DOCUMENTS\VISUAL STUDIO 2015\PROJECTS\ESHOPGUI\ESHOPGUI\X64\DEBUG\ESHOPGUI.CART.RESOURCES
C:\USERS\USER\DOCUMENTS\VISUAL STUDIO 2015\PROJECTS\ESHOPGUI\ESHOPGUI\X64\DEBUG\ESHOPGUI.CATALOG.RESOURCES
C:\USERS\USER\DOCUMENTS\VISUAL STUDIO 2015\PROJECTS\ESHOPGUI\ESHOPGUI\X64\DEBUG\ESHOPGUI.CREATEUSER.RESOURCES
C:\USERS\USER\DOCUMENTS\VISUAL STUDIO 2015\PROJECTS\ESHOPGUI\ESHOPGUI\X64\DEBUG\ESHOPGUI.CUSTOMERS.RESOURCES
C:\USERS\USER\DOCUMENTS\VISUAL STUDIO 2015\PROJECTS\ESHOPGUI\ESHOPGUI\X64\DEBUG\ESHOPGUI.FIRSTLOGIN.RESOURCES
C:\USERS\USER\DOCUMENTS\VISUAL STUDIO 2015\PROJECTS\ESHOPGUI\ESHOPGUI\X64\DEBUG\ESHOPGUI.FORGOTUSER.RESOURCES
C:\USERS\USER\DOCUMENTS\VISUAL STUDIO 2015\PROJECTS\ESHOPGUI\ESHOPGUI\X64\DEBUG\ESHOPGUI.ITEMS.RESOURCES
C:\USERS\USER\DOCUMENTS\VISUAL STUDIO 2015\PROJECTS\ESHOPGUI\ESHOPGUI\X64\DEBUG\ESHOPGUI.LOGINSCREEN.RESOURCES
C:\USERS\USER\DOCUMENTS\VISUAL STUDIO 2015\PROJECTS\ESHOPGUI\ESHOPGUI\X64\DEBUG\ESHOPGUI.ORDERSTATUS.RESOURCES
C:\USERS\USER\DOCUMENTS\VISUAL STUDIO 2015\PROJECTS\ESHOPGUI\ESHOPGUI\X64\DEBUG\ESHOPGUI.ORDERUSER.RESOURCES
C:\USERS\USER\DOCUMENTS\VISUAL STUDIO 2015\PROJECTS\ESHOPGUI\ESHOPGUI\X64\DEBUG\ESHOPGUI.TASK.RESOURCES
C:\USERS\USER\DOCUMENTS\VISUAL STUDIO 2015\PROJECTS\ESHOPGUI\ESHOPGUI\X64\DEBUG\ESHOPGUI.UPDATEITEM.RESOURCES
C:\USERS\USER\DOCUMENTS\VISUAL STUDIO 2015\PROJECTS\ESHOPGUI\ESHOPGUI\X64\DEBUG\ESHOPGUI.USERSCREEN.RESOURCES
